lab2/lab2_MUX/simulation/qsim/lab2_MUX.msim.vcd
$comment
	File created using the following command:
		vcd file lab2_MUX.msim.vcd -direction
$end
$date
	Sun Jun 02 19:43:28 2019
$end
$version
	ModelSim Version 10.5b
$end
$timescale
	1ps
$end

$scope module lab2_MUX_vlg_vec_tst $end
$var reg 1 ! D0 $end
$var reg 1 " D1 $end
$var reg 1 # D2_L $end
$var reg 1 $ D3_L $end
$var reg 1 % S0 $end
$var reg 1 & S1 $end
$var wire 1 ' Y_L $end

$scope module i1 $end
$var wire 1 ( gnd $end
$var wire 1 ) vcc $end
$var wire 1 * unknown $end
$var tri1 1 + devclrn $end
$var tri1 1 , devpor $end
$var tri1 1 - devoe $end
$var wire 1 . ~QUARTUS_CREATED_GND~I_combout $end
$var wire 1 / ~QUARTUS_CREATED_UNVM~~busy $end
$var wire 1 0 Y_L~output_o $end
$var wire 1 1 S1~input_o $end
$var wire 1 2 S0~input_o $end
$var wire 1 3 D0~input_o $end
$var wire 1 4 D1~input_o $end
$var wire 1 5 inst10~0_combout $end
$var wire 1 6 D2_L~input_o $end
$var wire 1 7 D3_L~input_o $end
$var wire 1 8 inst10~1_combout $end
$upscope $end
$upscope $end
$enddefinitions $end
#0
$dumpvars
1!
x"
x#
x$
0%
0&
0'
0(
1)
x*
1+
1,
1-
0.
z/
00
01
02
13
x4
15
x6
x7
18
$end
#25000
1%
1"
x!
x3
14
12
#50000
1&
1#
0%
x"
x4
02
16
11
05
x8
x0
08
x'
10
1'
#75000
1$
x#
1%
12
x6
17
15
x8
x0
08
x'
10
1'
#100000
x&
x$
x%
x2
x7
x1
x5
x8
x0
x'
#125000
0!
0&
0%
02
01
03
05
08
10
1'
#150000
0"
x!
1%
12
x3
04
#175000
0#
1&
x"
0%
02
x4
11
06
18
00
0'
#200000
0$
x#
1%
12
x6
07
15
x8
x0
18
x'
00
0'
#225000
0!
0&
0"
0#
0%
02
06
04
01
03
05
08
10
1'
#300000
1$
1#
16
17
#325000
1!
1%
12
13
#350000
1&
1"
0!
0%
02
03
14
11
#375000
1!
1%
12
13
15
#400000
0$
0#
0&
0"
0!
0%
02
03
04
01
06
07
05
18
00
08
0'
10
1'
#425000
1!
1%
12
13
#450000
1&
1"
0!
0%
02
03
14
11
18
00
0'
#475000
1!
1%
12
13
15
#500000
1#
0&
0"
0!
0%
02
03
04
01
16
05
08
10
1'
#525000
1!
1%
12
13
#550000
1&
1"
0!
0%
02
03
14
11
#575000
1!
1%
12
13
15
18
00
0'
#600000
1$
0#
0&
0"
0!
0%
02
03
04
01
06
17
05
08
10
1'
#625000
1!
1%
12
13
#650000
1&
1"
0!
0%
02
03
14
11
18
00
0'
#675000
1!
1%
12
13
15
08
10
1'
#700000
1#
0&
0"
0!
0%
02
03
04
01
16
05
18
00
08
0'
10
1'
#725000
1!
1%
12
13
#750000
1&
1"
0!
0%
02
03
14
11
#775000
1!
1%
12
13
15
#800000
0$
0#
0&
0"
0!
0%
02
03
04
01
06
07
05
18
00
08
0'
10
1'
#825000
1!
1%
12
13
#850000
1&
1"
0!
0%
02
03
14
11
18
00
0'
#875000
1!
1%
12
13
15
#900000
1#
0&
0"
0!
0%
02
03
04
01
16
05
08
10
1'
#925000
1!
1%
12
13
#950000
1&
1"
0!
0%
02
03
14
11
#975000
1!
1%
12
13
15
18
00
0'
#1000000
1$
0#
0&
0"
0!
0%
02
03
04
01
06
17
05
08
10
1'
#1025000
1!
1%
12
13
#1050000
1&
1"
0!
0%
02
03
14
11
18
00
0'
#1075000
1!
1%
12
13
15
08
10
1'
#1100000
1#
0&
0"
0!
0%
02
03
04
01
16
05
18
00
08
0'
10
1'
#1125000
1!
1%
12
13
#1150000
1&
1"
0!
0%
02
03
14
11
#1175000
1!
1%
12
13
15
