lab2/lab2_MUX_TEST/simulation/qsim/lab2_MUX_TEST.msim.vcd
$comment
	File created using the following command:
		vcd file lab2_MUX_TEST.msim.vcd -direction
$end
$date
	Mon Jun 03 18:32:16 2019
$end
$version
	ModelSim Version 10.5b
$end
$timescale
	1ps
$end

$scope module lab2_MUX_TEST_vlg_vec_tst $end
$var reg 1 ! A $end
$var reg 1 " B $end
$var wire 1 # C $end
$var wire 1 $ D $end
$var wire 1 % E $end
$var wire 1 & F $end

$scope module i1 $end
$var wire 1 ' gnd $end
$var wire 1 ( vcc $end
$var wire 1 ) unknown $end
$var tri1 1 * devclrn $end
$var tri1 1 + devpor $end
$var tri1 1 , devoe $end
$var wire 1 - ~QUARTUS_CREATED_GND~I_combout $end
$var wire 1 . ~QUARTUS_CREATED_UNVM~~busy $end
$var wire 1 / C~output_o $end
$var wire 1 0 D~output_o $end
$var wire 1 1 E~output_o $end
$var wire 1 2 F~output_o $end
$var wire 1 3 A~input_o $end
$var wire 1 4 B~input_o $end
$var wire 1 5 inst71|9~combout $end
$var wire 1 6 inst72|9~combout $end
$var wire 1 7 inst73|9~combout $end
$var wire 1 8 inst74|9~0_combout $end
$upscope $end
$upscope $end
$enddefinitions $end
#0
$dumpvars
0!
0"
0#
1$
1%
1&
0'
1(
x)
1*
1+
1,
0-
z.
0/
10
11
12
03
04
05
16
17
18
$end
#25000
1"
14
07
15
1/
01
0%
1#
#50000
1!
0"
04
13
17
06
00
11
1%
0$
#75000
1"
14
08
16
10
02
0&
1$
#100000
0!
0"
04
03
18
05
0/
12
1&
0#
#125000
1"
14
07
15
1/
01
0%
1#
#150000
1!
0"
04
13
17
06
00
11
1%
0$
#175000
1"
14
08
16
10
02
0&
1$
#200000
0!
0"
04
03
18
05
0/
12
1&
0#
#225000
1"
14
07
15
1/
01
0%
1#
#250000
1!
0"
04
13
17
06
00
11
1%
0$
#275000
1"
14
08
16
10
02
0&
1$
#300000
0!
0"
04
03
18
05
0/
12
1&
0#
#325000
1"
14
07
15
1/
01
0%
1#
#350000
1!
0"
04
13
17
06
00
11
1%
0$
#375000
1"
14
08
16
10
02
0&
1$
#400000
0!
0"
04
03
18
05
0/
12
1&
0#
#425000
1"
14
07
15
1/
01
0%
1#
#450000
1!
0"
04
13
17
06
00
11
1%
0$
#475000
1"
14
08
16
10
02
0&
1$
#500000
0!
0"
04
03
18
05
0/
12
1&
0#
#525000
1"
14
07
15
1/
01
0%
1#
#550000
1!
0"
04
13
17
06
00
11
1%
0$
#575000
1"
14
08
16
10
02
0&
1$
#600000
0!
0"
04
03
18
05
0/
12
1&
0#
#625000
1"
14
07
15
1/
01
0%
1#
#650000
1!
0"
04
13
17
06
00
11
1%
0$
#675000
1"
14
08
16
10
02
0&
1$
#700000
0!
0"
04
03
18
05
0/
12
1&
0#
#725000
1"
14
07
15
1/
01
0%
1#
#750000
1!
0"
04
13
17
06
00
11
1%
0$
#775000
1"
14
08
16
10
02
0&
1$
#800000
0!
0"
04
03
18
05
0/
12
1&
0#
#825000
1"
14
07
15
1/
01
0%
1#
#850000
1!
0"
04
13
17
06
00
11
1%
0$
#875000
1"
14
08
16
10
02
0&
1$
#900000
0!
0"
04
03
18
05
0/
12
1&
0#
#925000
1"
14
07
15
1/
01
0%
1#
#950000
1!
0"
04
13
17
06
00
11
1%
0$
#975000
1"
14
08
16
10
02
0&
1$
#1000000
0!
0"
04
03
18
05
0/
12
1&
0#
#1025000
1"
14
07
15
1/
01
0%
1#
#1050000
1!
0"
04
13
17
06
00
11
1%
0$
#1075000
1"
14
08
16
10
02
0&
1$
#1100000
0!
0"
04
03
18
05
0/
12
1&
0#
#1125000
1"
14
07
15
1/
01
0%
1#
#1150000
1!
0"
04
13
17
06
00
11
1%
0$
#1175000
1"
14
08
16
10
02
0&
1$
