lab5/lab5quiz/simulation/qsim/lab5quiz.msim.vcd
$comment
	File created using the following command:
		vcd file lab5quiz.msim.vcd -direction
$end
$date
	Fri Jul 19 10:12:30 2019
$end
$version
	ModelSim Version 10.5b
$end
$timescale
	1ps
$end

$scope module lab5quiz_vlg_vec_tst $end
$var reg 1 ! CLK $end
$var reg 1 " D $end
$var reg 1 # P $end
$var reg 1 $ RESET $end
$var wire 1 % D0 $end
$var wire 1 & D1 $end
$var wire 1 ' E $end
$var wire 1 ( PU $end
$var wire 1 ) T2 $end
$var wire 1 * W $end

$scope module i1 $end
$var wire 1 + gnd $end
$var wire 1 , vcc $end
$var wire 1 - unknown $end
$var tri1 1 . devclrn $end
$var tri1 1 / devpor $end
$var tri1 1 0 devoe $end
$var wire 1 1 ~QUARTUS_CREATED_GND~I_combout $end
$var wire 1 2 ~QUARTUS_CREATED_UNVM~~busy $end
$var wire 1 3 E~output_o $end
$var wire 1 4 T2~output_o $end
$var wire 1 5 D1~output_o $end
$var wire 1 6 D0~output_o $end
$var wire 1 7 PU~output_o $end
$var wire 1 8 W~output_o $end
$var wire 1 9 D~input_o $end
$var wire 1 : CLK~input_o $end
$var wire 1 ; CLK~inputclkctrl_outclk $end
$var wire 1 < P~input_o $end
$var wire 1 = inst|D1~1_combout $end
$var wire 1 > RESET~input_o $end
$var wire 1 ? RESET~inputclkctrl_outclk $end
$var wire 1 @ inst2~q $end
$var wire 1 A inst|D1~0_combout $end
$var wire 1 B inst1~q $end
$var wire 1 C inst|D0~0_combout $end
$var wire 1 D inst|D0~1_combout $end
$var wire 1 E inst3~q $end
$var wire 1 F inst|E~0_combout $end
$var wire 1 G inst|PU~0_combout $end
$var wire 1 H inst|W~0_combout $end
$upscope $end
$upscope $end
$enddefinitions $end
#0
$dumpvars
0!
0"
0#
1$
0%
0&
0'
0(
0)
1*
0+
1,
x-
1.
1/
10
01
z2
03
04
05
06
07
18
09
0:
0;
0<
0=
1>
1?
0@
0A
0B
1C
1D
0E
0F
0G
0H
$end
#25000
1!
1:
1;
1E
16
0C
1%
1=
0D
#50000
1#
0!
0:
1<
0;
1H
1C
08
0*
1D
#75000
1!
1:
1;
1@
15
1&
1G
17
1(
#100000
0!
0:
0;
#125000
1!
1:
1;
#150000
0#
0!
0:
0<
0;
0C
0=
0D
#175000
1!
1:
1;
0E
0@
05
06
0H
1C
0%
0&
0G
07
18
1*
0(
1D
#200000
0!
0:
0;
#225000
1!
1:
1;
1E
16
0C
1%
1=
0D
#250000
0!
0:
0;
#275000
1!
1:
1;
0E
1@
15
06
1C
0%
1&
1A
0=
1D
#300000
0!
0:
0;
#325000
1!
1:
1;
1E
1B
0@
05
14
16
1H
0C
1%
1)
0&
08
0*
#350000
0$
0!
0:
0>
0?
0;
0B
0E
06
04
0H
1C
0)
0%
0D
0A
18
1*
1D
#375000
1!
1:
1;
#400000
1"
1$
0!
0:
1>
19
1?
0;
#425000
1!
1:
1;
1E
16
0C
1%
1=
0D
#450000
0!
0:
0;
#475000
1!
1:
1;
0E
1@
15
06
0%
1&
1F
1A
0=
13
1'
#500000
0!
0:
0;
#525000
1!
1:
1;
1B
0@
05
14
1H
1C
1)
0&
1D
08
0*
#550000
0!
0:
0;
#575000
1!
1:
1;
1E
16
0C
1%
0F
03
0'
#600000
0!
0:
0;
#625000
1!
1:
1;
#650000
0!
0:
0;
#675000
1!
1:
1;
#700000
0!
0:
0;
#725000
1!
1:
1;
#750000
0"
0!
0:
09
0;
#775000
1!
1:
1;
#800000
0!
0:
0;
#825000
1!
1:
1;
#850000
0!
0:
0;
#875000
1!
1:
1;
#900000
0!
0:
0;
#925000
1!
1:
1;
#950000
0!
0:
0;
#975000
1!
1:
1;
