lab1/lab1d/simulation/qsim/lab1d.msim.vcd
$comment
	File created using the following command:
		vcd file lab1d.msim.vcd -direction
$end
$date
	Mon May 27 22:09:03 2019
$end
$version
	ModelSim Version 10.5b
$end
$timescale
	1ps
$end

$scope module lab1d_vlg_vec_tst $end
$var reg 1 ! A $end
$var reg 1 " B_L $end
$var reg 1 # C $end
$var reg 1 $ D_L $end
$var wire 1 % Y_L $end
$var wire 1 & Z_L $end

$scope module i1 $end
$var wire 1 ' gnd $end
$var wire 1 ( vcc $end
$var wire 1 ) unknown $end
$var tri1 1 * devclrn $end
$var tri1 1 + devpor $end
$var tri1 1 , devoe $end
$var wire 1 - ~QUARTUS_CREATED_GND~I_combout $end
$var wire 1 . ~QUARTUS_CREATED_UNVM~~busy $end
$var wire 1 / Y_L~output_o $end
$var wire 1 0 Z_L~output_o $end
$var wire 1 1 B_L~input_o $end
$var wire 1 2 C~input_o $end
$var wire 1 3 D_L~input_o $end
$var wire 1 4 A~input_o $end
$var wire 1 5 inst2~0_combout $end
$var wire 1 6 inst5~0_combout $end
$upscope $end
$upscope $end
$enddefinitions $end
#0
$dumpvars
0!
0"
0#
0$
0%
1&
0'
1(
x)
1*
1+
1,
0-
z.
0/
10
01
02
03
04
05
06
$end
#20000
1$
13
#40000
1#
0$
03
12
#60000
1$
13
15
1/
1%
#80000
1"
0#
0$
03
02
11
#100000
1$
13
#120000
1#
0$
03
12
#140000
1$
13
#160000
1!
0"
0#
0$
03
02
01
14
#180000
1$
13
#200000
1#
0$
03
12
#220000
1$
13
#240000
1"
0#
0$
03
02
11
#260000
1$
13
16
00
0&
#280000
1#
0$
03
12
06
10
1&
#300000
1$
13
#320000
0!
0"
0#
0$
03
02
01
04
05
0/
0%
#340000
1$
13
#360000
1#
0$
03
12
#380000
1$
13
15
1/
1%
#400000
1"
0#
0$
03
02
11
#420000
1$
13
#440000
1#
0$
03
12
#460000
1$
13
#480000
1!
0"
0#
0$
03
02
01
14
#500000
1$
13
#520000
1#
0$
03
12
#540000
1$
13
#560000
1"
0#
0$
03
02
11
#580000
1$
13
16
00
0&
#600000
1#
0$
03
12
06
10
1&
#620000
1$
13
#640000
0!
0"
0#
0$
03
02
01
04
05
0/
0%
#660000
1$
13
#680000
1#
0$
03
12
#700000
1$
13
15
1/
1%
#720000
1"
0#
0$
03
02
11
#740000
1$
13
#760000
1#
0$
03
12
#780000
1$
13
#800000
1!
0"
0#
0$
03
02
01
14
#820000
1$
13
#840000
1#
0$
03
12
#860000
1$
13
#880000
1"
0#
0$
03
02
11
#900000
1$
13
16
00
0&
#920000
1#
0$
03
12
06
10
1&
#940000
1$
13
#960000
0!
0"
0#
0$
03
02
01
04
05
0/
0%
#980000
1$
13
#1000000
1#
0$
03
12
#1020000
1$
13
15
1/
1%
#1040000
1"
0#
0$
03
02
11
#1060000
1$
13
#1080000
1#
0$
03
12
#1100000
1$
13
#1120000
1!
0"
0#
0$
03
02
01
14
#1140000
1$
13
#1160000
1#
0$
03
12
#1180000
1$
13
