lab6/lab6quiz/simulation/qsim/LAB6_Part2.msim.vcd
$comment
	File created using the following command:
		vcd file LAB6_Part2.msim.vcd -direction
$end
$date
	Fri Jul 26 09:51:35 2019
$end
$version
	ModelSim Version 10.5b
$end
$timescale
	1ps
$end

$scope module lab6_part2_vhd_vec_tst $end
$var wire 1 ! A0 $end
$var wire 1 " A1 $end
$var wire 1 # A2 $end
$var wire 1 $ A3 $end
$var wire 1 % Addr [14] $end
$var wire 1 & Addr [13] $end
$var wire 1 ' Addr [12] $end
$var wire 1 ( Addr [11] $end
$var wire 1 ) Addr [10] $end
$var wire 1 * Addr [9] $end
$var wire 1 + Addr [8] $end
$var wire 1 , Addr [7] $end
$var wire 1 - Addr [6] $end
$var wire 1 . Addr [5] $end
$var wire 1 / Addr [4] $end
$var wire 1 0 Addr [3] $end
$var wire 1 1 Addr [2] $end
$var wire 1 2 Addr [1] $end
$var wire 1 3 Addr [0] $end
$var wire 1 4 B0 $end
$var wire 1 5 B1 $end
$var wire 1 6 B2 $end
$var wire 1 7 B3 $end
$var wire 1 8 CIN $end
$var wire 1 9 CLK $end
$var wire 1 : COUT $end
$var wire 1 ; IR0 $end
$var wire 1 < IR1 $end
$var wire 1 = IR2 $end
$var wire 1 > IRLD $end
$var wire 1 ? MemCLK $end
$var wire 1 @ MSA0 $end
$var wire 1 A MSA1 $end
$var wire 1 B MSB0 $end
$var wire 1 C MSB1 $end
$var wire 1 D MSC0 $end
$var wire 1 E MSC1 $end
$var wire 1 F MSC2 $end
$var wire 1 G OUT0 $end
$var wire 1 H OUT1 $end
$var wire 1 I OUT2 $end
$var wire 1 J OUT3 $end
$var wire 1 K PCINC $end
$var wire 1 L PCLD $end
$var wire 1 M RESET $end

$scope module i1 $end
$var wire 1 N gnd $end
$var wire 1 O vcc $end
$var wire 1 P unknown $end
$var wire 1 Q devoe $end
$var wire 1 R devclrn $end
$var wire 1 S devpor $end
$var wire 1 T ww_devoe $end
$var wire 1 U ww_devclrn $end
$var wire 1 V ww_devpor $end
$var wire 1 W ww_IRLD $end
$var wire 1 X ww_IR2 $end
$var wire 1 Y ww_CLK $end
$var wire 1 Z ww_RESET $end
$var wire 1 [ ww_MemCLK $end
$var wire 1 \ ww_Addr [14] $end
$var wire 1 ] ww_Addr [13] $end
$var wire 1 ^ ww_Addr [12] $end
$var wire 1 _ ww_Addr [11] $end
$var wire 1 ` ww_Addr [10] $end
$var wire 1 a ww_Addr [9] $end
$var wire 1 b ww_Addr [8] $end
$var wire 1 c ww_Addr [7] $end
$var wire 1 d ww_Addr [6] $end
$var wire 1 e ww_Addr [5] $end
$var wire 1 f ww_Addr [4] $end
$var wire 1 g ww_Addr [3] $end
$var wire 1 h ww_Addr [2] $end
$var wire 1 i ww_Addr [1] $end
$var wire 1 j ww_Addr [0] $end
$var wire 1 k ww_PCINC $end
$var wire 1 l ww_PCLD $end
$var wire 1 m ww_IR1 $end
$var wire 1 n ww_IR0 $end
$var wire 1 o ww_COUT $end
$var wire 1 p ww_MSA1 $end
$var wire 1 q ww_MSC2 $end
$var wire 1 r ww_MSA0 $end
$var wire 1 s ww_MSC1 $end
$var wire 1 t ww_MSB1 $end
$var wire 1 u ww_CIN $end
$var wire 1 v ww_MSC0 $end
$var wire 1 w ww_MSB0 $end
$var wire 1 x ww_A3 $end
$var wire 1 y ww_A2 $end
$var wire 1 z ww_A1 $end
$var wire 1 { ww_A0 $end
$var wire 1 | ww_B3 $end
$var wire 1 } ww_B2 $end
$var wire 1 ~ ww_B1 $end
$var wire 1 !! ww_B0 $end
$var wire 1 "! ww_OUT3 $end
$var wire 1 #! ww_OUT2 $end
$var wire 1 $! ww_OUT1 $end
$var wire 1 %! ww_OUT0 $end
$var wire 1 &! \inst16|altsyncram_component|auto_generated|ram_block1a0_PORTAADDR_bus\ [3] $end
$var wire 1 '! \inst16|altsyncram_component|auto_generated|ram_block1a0_PORTAADDR_bus\ [2] $end
$var wire 1 (! \inst16|altsyncram_component|auto_generated|ram_block1a0_PORTAADDR_bus\ [1] $end
$var wire 1 )! \inst16|altsyncram_component|auto_generated|ram_block1a0_PORTAADDR_bus\ [0] $end
$var wire 1 *! \inst16|altsyncram_component|auto_generated|ram_block1a0_PORTADATAOUT_bus\ [19] $end
$var wire 1 +! \inst16|altsyncram_component|auto_generated|ram_block1a0_PORTADATAOUT_bus\ [18] $end
$var wire 1 ,! \inst16|altsyncram_component|auto_generated|ram_block1a0_PORTADATAOUT_bus\ [17] $end
$var wire 1 -! \inst16|altsyncram_component|auto_generated|ram_block1a0_PORTADATAOUT_bus\ [16] $end
$var wire 1 .! \inst16|altsyncram_component|auto_generated|ram_block1a0_PORTADATAOUT_bus\ [15] $end
$var wire 1 /! \inst16|altsyncram_component|auto_generated|ram_block1a0_PORTADATAOUT_bus\ [14] $end
$var wire 1 0! \inst16|altsyncram_component|auto_generated|ram_block1a0_PORTADATAOUT_bus\ [13] $end
$var wire 1 1! \inst16|altsyncram_component|auto_generated|ram_block1a0_PORTADATAOUT_bus\ [12] $end
$var wire 1 2! \inst16|altsyncram_component|auto_generated|ram_block1a0_PORTADATAOUT_bus\ [11] $end
$var wire 1 3! \inst16|altsyncram_component|auto_generated|ram_block1a0_PORTADATAOUT_bus\ [10] $end
$var wire 1 4! \inst16|altsyncram_component|auto_generated|ram_block1a0_PORTADATAOUT_bus\ [9] $end
$var wire 1 5! \inst16|altsyncram_component|auto_generated|ram_block1a0_PORTADATAOUT_bus\ [8] $end
$var wire 1 6! \inst16|altsyncram_component|auto_generated|ram_block1a0_PORTADATAOUT_bus\ [7] $end
$var wire 1 7! \inst16|altsyncram_component|auto_generated|ram_block1a0_PORTADATAOUT_bus\ [6] $end
$var wire 1 8! \inst16|altsyncram_component|auto_generated|ram_block1a0_PORTADATAOUT_bus\ [5] $end
$var wire 1 9! \inst16|altsyncram_component|auto_generated|ram_block1a0_PORTADATAOUT_bus\ [4] $end
$var wire 1 :! \inst16|altsyncram_component|auto_generated|ram_block1a0_PORTADATAOUT_bus\ [3] $end
$var wire 1 ;! \inst16|altsyncram_component|auto_generated|ram_block1a0_PORTADATAOUT_bus\ [2] $end
$var wire 1 <! \inst16|altsyncram_component|auto_generated|ram_block1a0_PORTADATAOUT_bus\ [1] $end
$var wire 1 =! \inst16|altsyncram_component|auto_generated|ram_block1a0_PORTADATAOUT_bus\ [0] $end
$var wire 1 >! \~QUARTUS_CREATED_GND~I_combout\ $end
$var wire 1 ?! \MemCLK~input_o\ $end
$var wire 1 @! \inst7~0_combout\ $end
$var wire 1 A! \RESET~input_o\ $end
$var wire 1 B! \inst7~q\ $end
$var wire 1 C! \MemCLK~inputCLKENA0_outclk\ $end
$var wire 1 D! \inst11|sub|92~0_combout\ $end
$var wire 1 E! \inst11|sub|87~q\ $end
$var wire 1 F! \inst17|PCLD~combout\ $end
$var wire 1 G! \inst11|sub|106~0_combout\ $end
$var wire 1 H! \inst16|altsyncram_component|auto_generated|ram_block1a3\ $end
$var wire 1 I! \inst11|sub|109~0_combout\ $end
$var wire 1 J! \inst11|sub|110~q\ $end
$var wire 1 K! \inst16|altsyncram_component|auto_generated|ram_block1a2\ $end
$var wire 1 L! \inst11|sub|102~0_combout\ $end
$var wire 1 M! \inst11|sub|99~q\ $end
$var wire 1 N! \inst16|altsyncram_component|auto_generated|ram_block1a1\ $end
$var wire 1 O! \inst3|inst1~q\ $end
$var wire 1 P! \inst2|inst1~q\ $end
$var wire 1 Q! \inst17|D0~combout\ $end
$var wire 1 R! \inst5~q\ $end
$var wire 1 S! \inst11|sub|75~0_combout\ $end
$var wire 1 T! \inst11|sub|9~q\ $end
$var wire 1 U! \inst16|altsyncram_component|auto_generated|ram_block1a0~portadataout\ $end
$var wire 1 V! \inst14|inst1~q\ $end
$var wire 1 W! \inst17|D1~0_combout\ $end
$var wire 1 X! \inst8~q\ $end
$var wire 1 Y! \inst17|PCINC~0_combout\ $end
$var wire 1 Z! \inst17|PCINC~1_combout\ $end
$var wire 1 [! \inst|inst~0_combout\ $end
$var wire 1 \! \inst17|MSC2~0_combout\ $end
$var wire 1 ]! \inst17|MSC1~0_combout\ $end
$var wire 1 ^! \inst17|MSC0~0_combout\ $end
$var wire 1 _! \inst|inst39|sub|81~4_combout\ $end
$var wire 1 `! \inst|inst39|sub|81~1_combout\ $end
$var wire 1 a! \inst17|MSB1~combout\ $end
$var wire 1 b! \inst|inst47|6~0_combout\ $end
$var wire 1 c! \inst|inst18~q\ $end
$var wire 1 d! \CIN~input_o\ $end
$var wire 1 e! \inst|inst45|sub|81~2_combout\ $end
$var wire 1 f! \inst|inst45|sub|81~3_combout\ $end
$var wire 1 g! \inst|inst49|6~0_combout\ $end
$var wire 1 h! \inst|inst53|6~1_combout\ $end
$var wire 1 i! \inst|inst7~q\ $end
$var wire 1 j! \inst|inst45|sub|81~1_combout\ $end
$var wire 1 k! \inst|inst45|sub|81~0_combout\ $end
$var wire 1 l! \inst|inst40|6~0_combout\ $end
$var wire 1 m! \inst|inst19~q\ $end
$var wire 1 n! \inst|inst36|sub|78~combout\ $end
$var wire 1 o! \inst|inst42|sub|81~1_combout\ $end
$var wire 1 p! \inst|inst51|6~0_combout\ $end
$var wire 1 q! \inst|inst6~q\ $end
$var wire 1 r! \inst|inst39|sub|81~3_combout\ $end
$var wire 1 s! \inst|inst39|sub|81~0_combout\ $end
$var wire 1 t! \inst|inst48|6~0_combout\ $end
$var wire 1 u! \inst|inst17~q\ $end
$var wire 1 v! \inst|inst52|6~1_combout\ $end
$var wire 1 w! \inst|inst52|6~0_combout\ $end
$var wire 1 x! \inst|inst5~q\ $end
$var wire 1 y! \inst|inst38|sub|65~combout\ $end
$var wire 1 z! \inst|inst53|6~2_combout\ $end
$var wire 1 {! \inst|inst36|sub|105~0_combout\ $end
$var wire 1 |! \inst|inst36|sub|82~combout\ $end
$var wire 1 }! \inst|inst53|6~0_combout\ $end
$var wire 1 ~! \inst|inst4~q\ $end
$var wire 1 !" \inst|inst38|sub|81~0_combout\ $end
$var wire 1 "" \inst|inst32~combout\ $end
$var wire 1 #" \inst|inst50|6~1_combout\ $end
$var wire 1 $" \inst|inst50|6~0_combout\ $end
$var wire 1 %" \inst|inst16~q\ $end
$var wire 1 &" \inst|inst~1_combout\ $end
$var wire 1 '" \inst17|PCINC~2_combout\ $end
$var wire 1 (" \inst|inst38|sub|81~1_combout\ $end
$var wire 1 )" \inst|inst39|sub|81~2_combout\ $end
$var wire 1 *" \inst|inst42|sub|81~0_combout\ $end
$var wire 1 +" \ALT_INV_CIN~input_o\ $end
$var wire 1 ," \inst|inst53|ALT_INV_6~2_combout\ $end
$var wire 1 -" \inst|inst52|ALT_INV_6~1_combout\ $end
$var wire 1 ." \inst|inst50|ALT_INV_6~1_combout\ $end
$var wire 1 /" \inst|inst45|sub|ALT_INV_81~3_combout\ $end
$var wire 1 0" \inst|inst45|sub|ALT_INV_81~2_combout\ $end
$var wire 1 1" \inst|inst45|sub|ALT_INV_81~1_combout\ $end
$var wire 1 2" \inst|inst39|sub|ALT_INV_81~4_combout\ $end
$var wire 1 3" \inst|inst39|sub|ALT_INV_81~3_combout\ $end
$var wire 1 4" \inst11|sub|ALT_INV_106~0_combout\ $end
$var wire 1 5" \inst|inst45|sub|ALT_INV_81~0_combout\ $end
$var wire 1 6" \inst|inst36|sub|ALT_INV_78~combout\ $end
$var wire 1 7" \inst|inst39|sub|ALT_INV_81~1_combout\ $end
$var wire 1 8" \inst|inst39|sub|ALT_INV_81~0_combout\ $end
$var wire 1 9" \inst|inst36|sub|ALT_INV_82~combout\ $end
$var wire 1 :" \inst|ALT_INV_inst32~combout\ $end
$var wire 1 ;" \inst|inst38|sub|ALT_INV_65~combout\ $end
$var wire 1 <" \inst|inst38|sub|ALT_INV_81~0_combout\ $end
$var wire 1 =" \inst17|ALT_INV_MSC0~0_combout\ $end
$var wire 1 >" \inst17|ALT_INV_MSB1~combout\ $end
$var wire 1 ?" \inst17|ALT_INV_MSC1~0_combout\ $end
$var wire 1 @" \inst17|ALT_INV_PCINC~2_combout\ $end
$var wire 1 A" \inst17|ALT_INV_MSC2~0_combout\ $end
$var wire 1 B" \inst|ALT_INV_inst~0_combout\ $end
$var wire 1 C" \inst|inst36|sub|ALT_INV_105~0_combout\ $end
$var wire 1 D" \inst|ALT_INV_inst19~q\ $end
$var wire 1 E" \inst|ALT_INV_inst7~q\ $end
$var wire 1 F" \inst|ALT_INV_inst18~q\ $end
$var wire 1 G" \inst|ALT_INV_inst6~q\ $end
$var wire 1 H" \inst|ALT_INV_inst17~q\ $end
$var wire 1 I" \inst|ALT_INV_inst5~q\ $end
$var wire 1 J" \inst|ALT_INV_inst16~q\ $end
$var wire 1 K" \inst|ALT_INV_inst4~q\ $end
$var wire 1 L" \inst14|ALT_INV_inst1~q\ $end
$var wire 1 M" \inst3|ALT_INV_inst1~q\ $end
$var wire 1 N" \inst17|ALT_INV_PCLD~combout\ $end
$var wire 1 O" \inst11|sub|ALT_INV_9~q\ $end
$var wire 1 P" \inst11|sub|ALT_INV_87~q\ $end
$var wire 1 Q" \inst11|sub|ALT_INV_99~q\ $end
$var wire 1 R" \inst11|sub|ALT_INV_110~q\ $end
$var wire 1 S" \ALT_INV_inst7~q\ $end
$var wire 1 T" \inst2|ALT_INV_inst1~q\ $end
$var wire 1 U" \ALT_INV_inst5~q\ $end
$var wire 1 V" \ALT_INV_inst8~q\ $end
$var wire 1 W" \inst|inst42|sub|ALT_INV_81~1_combout\ $end
$var wire 1 X" \inst16|altsyncram_component|auto_generated|ALT_INV_ram_block1a1\ $end
$var wire 1 Y" \inst16|altsyncram_component|auto_generated|ALT_INV_ram_block1a2\ $end
$var wire 1 Z" \inst16|altsyncram_component|auto_generated|ALT_INV_ram_block1a3\ $end
$var wire 1 [" \inst16|altsyncram_component|auto_generated|ALT_INV_ram_block1a0~portadataout\ $end
$upscope $end
$upscope $end
$enddefinitions $end
#0
$dumpvars
0!
0"
0#
0$
04
05
06
07
08
09
0:
0;
0<
0=
1>
0?
1@
0A
0B
1C
0D
0E
0F
0G
0H
0I
0J
0K
0L
0M
0N
1O
xP
1Q
1R
1S
1T
1U
1V
1W
0X
0Y
0Z
0[
0k
0l
0m
0n
0o
0p
0q
1r
0s
1t
0u
0v
0w
0x
0y
0z
0{
0|
0}
0~
0!!
0"!
0#!
0$!
0%!
x>!
0?!
1@!
0A!
0B!
0C!
0D!
0E!
0F!
0G!
0H!
0I!
0J!
0K!
0L!
0M!
0N!
0O!
0P!
1Q!
0R!
0S!
0T!
0U!
0V!
0W!
0X!
1Y!
0Z!
0[!
0\!
1]!
0^!
0_!
0`!
1a!
0b!
0c!
0d!
0e!
0f!
0g!
0h!
0i!
1j!
0k!
0l!
0m!
0n!
0o!
0p!
0q!
1r!
1s!
0t!
0u!
0v!
0w!
0x!
0y!
0z!
0{!
0|!
0}!
0~!
0!"
1""
0#"
0$"
0%"
0&"
0'"
0("
0)"
0*"
1+"
1,"
1-"
1."
1/"
10"
01"
12"
03"
14"
15"
16"
17"
08"
19"
0:"
1;"
1<"
1="
0>"
0?"
1@"
1A"
1B"
1C"
1D"
1E"
1F"
1G"
1H"
1I"
1J"
1K"
1L"
1M"
1N"
1O"
1P"
1Q"
1R"
1S"
1T"
1U"
1V"
1W"
1X"
1Y"
1Z"
1["
0\
0]
1^
0_
1`
0a
1b
1c
0d
1e
0f
0g
0h
0i
0j
0*!
0+!
0,!
0-!
0.!
0/!
00!
01!
02!
03!
04!
05!
06!
07!
08!
09!
0:!
0;!
0<!
0=!
0&!
0'!
0(!
0)!
0%
0&
1'
0(
1)
0*
1+
1,
0-
1.
0/
00
01
02
03
$end
#10000
1?
1[
1?!
1C!
#10001
1<!
1=!
1N!
1U!
0["
0X"
1p!
1g!
#20000
0?
0[
0?!
0C!
#30000
1?
1[
1?!
1C!
#40000
0?
0[
0?!
0C!
#50000
1?
1M
1[
1Z
1A!
1?!
1C!
1B!
0S"
1O!
1R!
1V!
0@!
0L"
0U"
0M"
1Y
1S!
0Y!
1Z!
1f!
0Q!
1W!
0/"
19
1n
1m
1;
1<
1k
0W
1K
0>
#60000
0?
0[
0?!
0C!
#70000
1?
1[
1?!
1C!
0B!
1S"
1@!
0Y
09
#80000
0?
0[
0?!
0C!
#90000
1?
1[
1?!
1C!
1B!
0S"
0R!
1T!
1X!
0@!
0V"
0O"
1U"
1)!
1Y
1D!
0S!
0W!
0f!
1h!
1'"
0@"
1/"
19
1j
13
0r
0@
#100000
0?
0[
0?!
0C!
#110000
1?
1[
1?!
1C!
0B!
1S"
1@!
0Y
09
#110001
0=!
0U!
1["
0g!
#120000
0?
0[
0?!
0C!
#130000
1?
1[
1?!
1C!
1B!
0S"
1E!
0T!
0X!
1q!
0@!
0G"
1V"
1O"
0P"
0)!
1(!
1Y
1Q!
1Y!
0Z!
0h!
0'"
1b!
1n!
1o!
1*"
0W"
06"
1@"
19
1z
0j
1i
1"
03
12
1$!
0k
1W
1r
1H
0K
1>
1@
#140000
0?
0[
0?!
0C!
#150000
1?
1[
1?!
1C!
0B!
1S"
1@!
0Y
09
#150001
1;!
0<!
1K!
0N!
1X"
0Y"
1w!
0p!
#160000
0?
0[
0?!
0C!
#170000
1?
1[
1?!
1C!
1B!
0S"
0O!
1P!
1R!
0V!
0@!
1L"
0U"
0T"
1M"
1Y
1S!
0Y!
1Z!
0Q!
1\!
0]!
1h!
1?"
0A"
19
0n
1X
0m
1p!
1`!
0j!
0o!
0s!
1v!
0w!
1!"
0;
1=
0<
0<"
0-"
18"
1W"
11"
07"
1p
1q
1k
0W
1s
0b!
0p!
0*"
1t!
1)"
1w!
1A
1F
1K
0>
1E
1#!
0$!
1I
0H
#180000
0?
0[
0?!
0C!
#190000
1?
1[
1?!
1C!
0B!
1S"
1@!
0Y
09
#200000
0?
0[
0?!
0C!
#210000
1?
1[
1?!
1C!
1B!
0S"
0R!
1T!
0q!
1x!
0@!
0I"
1G"
0O"
1U"
1)!
1Y
1Q!
1Y!
0Z!
0\!
1]!
0h!
0n!
1s!
0v!
0`!
1y!
0;"
17"
1-"
08"
16"
0?"
1A"
19
1y
0z
1j
1k!
1$"
1_!
1`!
1j!
0!"
0t!
0)"
1#"
1("
1#
0"
13
0."
1<"
01"
07"
02"
05"
0p
0q
0k
1W
0s
1l!
0s!
1t!
1)"
0k!
0("
0$"
0A
0F
0K
1>
15"
18"
0E
1"!
0#!
1%!
0l!
1J
0I
1G
0"!
0%!
1#!
0J
0G
1I
#220000
0?
0[
0?!
0C!
#230000
1?
1[
1?!
1C!
0B!
1S"
1@!
0Y
09
#230001
0;!
0K!
1Y"
0w!
#240000
0?
0[
0?!
0C!
#250000
1?
1[
1?!
1C!
1B!
0S"
0P!
1R!
0@!
0U"
1T"
1Y
0D!
1G!
0Q!
0S!
0Y!
1Z!
0a!
1f!
0/"
1>"
04"
19
0X
1L!
0#"
1$"
0=
1."
0t
1k
0W
1w
0$"
0C
1K
0>
1B
#260000
0?
0[
0?!
0C!
#270000
1?
1[
1?!
1C!
0B!
1S"
1@!
0Y
09
#280000
0?
0[
0?!
0C!
#290000
1?
1[
1?!
1C!
1B!
0S"
0E!
1M!
0R!
0T!
1u!
0@!
0H"
1O"
1U"
0Q"
1P"
0)!
0(!
1'!
1Y
1I!
0L!
1Q!
1Y!
0Z!
1a!
0f!
0G!
0r!
1v!
1|!
09"
0-"
13"
14"
1/"
0>"
19
1}
0j
1h
0i
1#"
0I!
1L!
16
03
02
11
0."
1t
0k
1W
0w
1C
0K
1>
0B
#300000
0?
0[
0?!
0C!
#310000
1?
1[
1?!
1C!
0B!
1S"
1@!
0Y
09
#310001
1;!
1=!
1K!
1U!
0["
0Y"
1w!
1g!
#320000
0?
0[
0?!
0C!
#330000
1?
1[
1?!
1C!
1B!
0S"
1P!
1R!
1V!
0@!
0L"
0U"
0T"
1Y
1S!
0Y!
1Z!
1W!
19
1n
1X
1;
1=
1k
0W
1K
0>
#340000
0?
0[
0?!
0C!
#350000
1?
1[
1?!
1C!
0B!
1S"
1@!
0Y
09
#360000
0?
0[
0?!
0C!
#370000
1?
1[
1?!
1C!
1B!
0S"
1T!
1X!
0@!
0V"
0O"
1)!
1Y
1F!
0Q!
0W!
0Z!
0N"
19
1j
13
0k
1l
0K
1L
#380000
0?
0[
0?!
0C!
#390000
1?
1[
1?!
1C!
0B!
1S"
1@!
0Y
09
#390001
0;!
1<!
0=!
0K!
1N!
0U!
1["
0X"
1Y"
0L!
0w!
1D!
1p!
0S!
0g!
#400000
0?
0[
0?!
0C!
#410000
1?
1[
1?!
1C!
1B!
0S"
1E!
0M!
0R!
0T!
0X!
0@!
1V"
1O"
1U"
1Q"
0P"
0)!
1(!
0'!
1Y
0F!
1Q!
1Y!
1N"
19
0j
0h
1i
03
12
01
1W
0l
1>
0L
#420000
0?
0[
0?!
0C!
#430000
1?
1[
1?!
1C!
0B!
1S"
1@!
0Y
09
#430001
1;!
0<!
1K!
0N!
1X"
0Y"
1w!
0p!
#440000
0?
0[
0?!
0C!
#450000
1?
1[
1?!
1C!
1B!
0S"
1R!
0V!
0@!
1L"
0U"
1Y
1S!
0Y!
1Z!
0Q!
1\!
0]!
1h!
1?"
0A"
19
0n
1z!
1$"
1("
0_!
0`!
0j!
1s!
0v!
1!"
0;
0<"
1-"
08"
11"
17"
12"
0,"
1p
1q
1k
0W
1s
1}!
0t!
0)"
0w!
1A
1F
1K
0>
1E
1"!
1J
0#!
0I
#460000
0?
0[
0?!
0C!
#470000
1?
1[
1?!
1C!
0B!
1S"
1@!
0Y
09
#480000
0?
0[
0?!
0C!
#490000
1?
1[
1?!
1C!
1B!
0S"
0R!
1T!
0x!
1~!
0@!
0K"
1I"
0O"
1U"
1)!
1Y
1Q!
1Y!
0Z!
0\!
1]!
0h!
1`!
0y!
1_!
0!"
0""
1:"
1<"
02"
1;"
07"
0?"
1A"
19
1x
0y
1j
1k!
0_!
0`!
1j!
1v!
1!"
1t!
1)"
0z!
0s!
1w!
0$"
0#"
0("
1$
0#
13
1."
18"
1,"
0<"
0-"
01"
17"
12"
05"
0p
0q
0k
1W
0s
1l!
0k!
1("
0}!
0t!
0)"
1$"
0A
0F
0K
1>
15"
0E
0"!
1#!
1%!
0l!
0J
1I
1G
0#!
1"!
0%!
0I
1J
0G
#500000
0?
0[
0?!
0C!
#510000
1?
1[
1?!
1C!
0B!
1S"
1@!
0Y
09
#510001
0;!
0K!
1Y"
0w!
#520000
0?
0[
0?!
0C!
#530000
1?
1[
1?!
1C!
1B!
0S"
0P!
1R!
0@!
0U"
1T"
1Y
0D!
1G!
0Q!
0S!
0Y!
1Z!
0a!
1f!
0/"
1>"
04"
19
0X
1L!
1#"
0$"
0=
0."
0t
1k
0W
1w
1$"
0C
1K
0>
1B
#540000
0?
0[
0?!
0C!
#550000
1?
1[
1?!
1C!
0B!
1S"
1@!
0Y
09
#560000
0?
0[
0?!
0C!
#570000
1?
1[
1?!
1C!
1B!
0S"
0E!
1M!
0R!
0T!
0u!
1%"
0@!
0J"
1H"
1O"
1U"
0Q"
1P"
0)!
0(!
1'!
1Y
1I!
0L!
1Q!
1Y!
0Z!
1a!
0f!
0G!
1r!
1s!
0v!
0|!
19"
1-"
08"
03"
14"
1/"
0>"
19
1|
0}
0j
1h
0i
0#"
0I!
1L!
17
06
03
02
11
1."
1t
0k
1W
0w
1C
0K
1>
0B
#580000
0?
0[
0?!
0C!
#590000
1?
1[
1?!
1C!
0B!
1S"
1@!
0Y
09
#590001
1;!
1=!
1K!
1U!
0["
0Y"
1w!
1g!
#600000
0?
0[
0?!
0C!
#610000
1?
1[
1?!
1C!
1B!
0S"
1P!
1R!
1V!
0@!
0L"
0U"
0T"
1Y
1S!
0Y!
1Z!
1W!
19
1n
1X
1;
1=
1k
0W
1K
0>
#620000
0?
0[
0?!
0C!
#630000
1?
1[
1?!
1C!
0B!
1S"
1@!
0Y
09
#640000
0?
0[
0?!
0C!
#650000
1?
1[
1?!
1C!
1B!
0S"
1T!
1X!
0@!
0V"
0O"
1)!
1Y
1F!
0Q!
0W!
0Z!
0N"
19
1j
13
0k
1l
0K
1L
#660000
0?
0[
0?!
0C!
#670000
1?
1[
1?!
1C!
0B!
1S"
1@!
0Y
09
#670001
0;!
1<!
0=!
0K!
1N!
0U!
1["
0X"
1Y"
0L!
0w!
1D!
1p!
0S!
0g!
#680000
0?
0[
0?!
0C!
#690000
1?
1[
1?!
1C!
1B!
0S"
1E!
0M!
0R!
0T!
0X!
0@!
1V"
1O"
1U"
1Q"
0P"
0)!
1(!
0'!
1Y
0F!
1Q!
1Y!
1N"
19
0j
0h
1i
03
12
01
1W
0l
1>
0L
#700000
0?
0[
0?!
0C!
#710000
1?
1[
1?!
1C!
0B!
1S"
1@!
0Y
09
#710001
1;!
0<!
1K!
0N!
1X"
0Y"
1w!
0p!
#720000
0?
0[
0?!
0C!
#730000
1?
1[
1?!
1C!
1B!
0S"
1R!
0V!
0@!
1L"
0U"
1Y
1S!
0Y!
1Z!
0Q!
1\!
0]!
1h!
1?"
0A"
19
0n
0$"
0("
1_!
1`!
0j!
0w!
0!"
0;
1<"
11"
07"
02"
1p
1q
1k
0W
1s
1A
1F
1K
0>
1E
0"!
0J
#740000
0?
0[
0?!
0C!
#750000
1?
1[
1?!
1C!
0B!
1S"
1@!
0Y
09
#760000
0?
0[
0?!
0C!
#770000
1?
1[
1?!
1C!
1B!
0S"
0R!
1T!
0~!
0@!
1K"
0O"
1U"
1)!
1Y
1Q!
1Y!
0Z!
0\!
1]!
0h!
0_!
1|!
1!"
0<"
09"
12"
0?"
1A"
19
0x
1j
1k!
1t!
1)"
0`!
1j!
0!"
1w!
1$"
1("
0$
13
1<"
01"
17"
05"
0p
0q
0k
1W
0s
1l!
0t!
0)"
0k!
0$"
0("
0A
0F
0K
1>
15"
0E
1"!
1#!
1%!
0l!
1J
1I
1G
0"!
0%!
0#!
0J
0G
0I
#780000
0?
0[
0?!
0C!
#790000
1?
1[
1?!
1C!
0B!
1S"
1@!
0Y
09
#790001
0;!
0K!
1Y"
0w!
#800000
0?
0[
0?!
0C!
#810000
1?
1[
1?!
1C!
1B!
0S"
0P!
1R!
0@!
0U"
1T"
1Y
0D!
1G!
0Q!
0S!
0Y!
1Z!
0a!
1f!
0/"
1>"
04"
19
0X
1L!
0=
0t
1k
0W
1w
0C
1K
0>
1B
#820000
0?
0[
0?!
0C!
#830000
1?
1[
1?!
1C!
0B!
1S"
1@!
0Y
09
#840000
0?
0[
0?!
0C!
#850000
1?
1[
1?!
1C!
1B!
0S"
0E!
1M!
0R!
0T!
0%"
0@!
1J"
1O"
1U"
0Q"
1P"
0)!
0(!
1'!
1Y
1I!
0L!
1Q!
1Y!
0Z!
1a!
0f!
0G!
0|!
1""
0:"
19"
14"
1/"
0>"
19
0|
0j
1h
0i
0I!
1L!
07
03
02
11
1t
0k
1W
0w
1C
0K
1>
0B
#860000
0?
0[
0?!
0C!
#870000
1?
1[
1?!
1C!
0B!
1S"
1@!
0Y
09
#870001
1;!
1=!
1K!
1U!
0["
0Y"
1w!
1g!
#880000
0?
0[
0?!
0C!
#890000
1?
1[
1?!
1C!
1B!
0S"
1P!
1R!
1V!
0@!
0L"
0U"
0T"
1Y
1S!
0Y!
1Z!
1W!
19
1n
1X
1;
1=
1k
0W
1K
0>
#900000
0?
0[
0?!
0C!
#910000
1?
1[
1?!
1C!
0B!
1S"
1@!
0Y
09
#920000
0?
0[
0?!
0C!
#930000
1?
1[
1?!
1C!
1B!
0S"
1T!
1X!
0@!
0V"
0O"
1)!
1Y
1F!
0Q!
0W!
0Z!
0N"
19
1j
13
0k
1l
0K
1L
#940000
0?
0[
0?!
0C!
#950000
1?
1[
1?!
1C!
0B!
1S"
1@!
0Y
09
#950001
0;!
1<!
0=!
0K!
1N!
0U!
1["
0X"
1Y"
0L!
0w!
1D!
1p!
0S!
0g!
#960000
0?
0[
0?!
0C!
#970000
1?
1[
1?!
1C!
1B!
0S"
1E!
0M!
0R!
0T!
0X!
0@!
1V"
1O"
1U"
1Q"
0P"
0)!
1(!
0'!
1Y
0F!
1Q!
1Y!
1N"
19
0j
0h
1i
03
12
01
1W
0l
1>
0L
#980000
0?
0[
0?!
0C!
#990000
1?
1[
1?!
1C!
0B!
1S"
1@!
0Y
09
#990001
1;!
0<!
1K!
0N!
1X"
0Y"
1w!
0p!
#1000000
0?
0[
0?!
0C!
#1010000
1?
1[
1?!
1C!
1B!
0S"
1R!
0V!
0@!
1L"
0U"
1Y
1S!
0Y!
1Z!
0Q!
1\!
0]!
1h!
1?"
0A"
19
0n
1`!
0j!
0w!
1!"
0;
0<"
11"
07"
1p
1q
1k
0W
1s
1A
1F
1K
0>
1E
#1020000
0?
0[
0?!
0C!
#1030000
1?
1[
1?!
1C!
0B!
1S"
1@!
0Y
09
#1040000
0?
0[
0?!
0C!
#1050000
1?
1[
1?!
1C!
1B!
0S"
0R!
1T!
0@!
0O"
1U"
1)!
1Y
1Q!
1Y!
0Z!
0\!
1]!
0h!
0?"
1A"
19
1j
1k!
1t!
1$"
1("
1)"
0`!
1j!
1w!
0!"
13
1<"
01"
17"
05"
0p
0q
0k
1W
0s
1l!
0t!
0)"
0k!
0$"
0("
0A
0F
0K
1>
15"
0E
1#!
1"!
1%!
0l!
1I
1J
1G
0"!
0%!
0#!
0J
0G
0I
#1060000
0?
0[
0?!
0C!
#1070000
1?
1[
1?!
1C!
0B!
1S"
1@!
0Y
09
#1070001
0;!
0K!
1Y"
0w!
#1080000
0?
0[
0?!
0C!
