lab6/Board ROM/Board_ROM_restored/simulation/qsim/Board_ROM.msim.vcd
$comment
	File created using the following command:
		vcd file Board_ROM.msim.vcd -direction
$end
$date
	Sun Jul 21 19:39:24 2019
$end
$version
	ModelSim Version 10.5b
$end
$timescale
	1ps
$end

$scope module rom_test_vhd_vec_tst $end
$var wire 1 ! A [14] $end
$var wire 1 " A [13] $end
$var wire 1 # A [12] $end
$var wire 1 $ A [11] $end
$var wire 1 % A [10] $end
$var wire 1 & A [9] $end
$var wire 1 ' A [8] $end
$var wire 1 ( A [7] $end
$var wire 1 ) A [6] $end
$var wire 1 * A [5] $end
$var wire 1 + A [4] $end
$var wire 1 , A [3] $end
$var wire 1 - A [2] $end
$var wire 1 . A [1] $end
$var wire 1 / A [0] $end
$var wire 1 0 CE_L $end
$var wire 1 1 CLK $end
$var wire 1 2 D [7] $end
$var wire 1 3 D [6] $end
$var wire 1 4 D [5] $end
$var wire 1 5 D [4] $end
$var wire 1 6 D [3] $end
$var wire 1 7 D [2] $end
$var wire 1 8 D [1] $end
$var wire 1 9 D [0] $end
$var wire 1 : OE_L $end
$var wire 1 ; PC [3] $end
$var wire 1 < PC [2] $end
$var wire 1 = PC [1] $end
$var wire 1 > PC [0] $end

$scope module i1 $end
$var wire 1 ? gnd $end
$var wire 1 @ vcc $end
$var wire 1 A unknown $end
$var wire 1 B devoe $end
$var wire 1 C devclrn $end
$var wire 1 D devpor $end
$var wire 1 E ww_devoe $end
$var wire 1 F ww_devclrn $end
$var wire 1 G ww_devpor $end
$var wire 1 H ww_A [14] $end
$var wire 1 I ww_A [13] $end
$var wire 1 J ww_A [12] $end
$var wire 1 K ww_A [11] $end
$var wire 1 L ww_A [10] $end
$var wire 1 M ww_A [9] $end
$var wire 1 N ww_A [8] $end
$var wire 1 O ww_A [7] $end
$var wire 1 P ww_A [6] $end
$var wire 1 Q ww_A [5] $end
$var wire 1 R ww_A [4] $end
$var wire 1 S ww_A [3] $end
$var wire 1 T ww_A [2] $end
$var wire 1 U ww_A [1] $end
$var wire 1 V ww_A [0] $end
$var wire 1 W ww_PC [3] $end
$var wire 1 X ww_PC [2] $end
$var wire 1 Y ww_PC [1] $end
$var wire 1 Z ww_PC [0] $end
$var wire 1 [ ww_D [7] $end
$var wire 1 \ ww_D [6] $end
$var wire 1 ] ww_D [5] $end
$var wire 1 ^ ww_D [4] $end
$var wire 1 _ ww_D [3] $end
$var wire 1 ` ww_D [2] $end
$var wire 1 a ww_D [1] $end
$var wire 1 b ww_D [0] $end
$var wire 1 c ww_CLK $end
$var wire 1 d ww_OE_L $end
$var wire 1 e ww_CE_L $end
$var wire 1 f \CLK~combout\ $end
$var wire 1 g \OE_L~combout\ $end
$var wire 1 h \CE_L~combout\ $end
$var wire 1 i \inst|D[7]~0_combout\ $end
$var wire 1 j \PC~combout\ [3] $end
$var wire 1 k \PC~combout\ [2] $end
$var wire 1 l \PC~combout\ [1] $end
$var wire 1 m \PC~combout\ [0] $end
$var wire 1 n \inst|D_sig\ [7] $end
$var wire 1 o \inst|D_sig\ [6] $end
$var wire 1 p \inst|D_sig\ [5] $end
$var wire 1 q \inst|D_sig\ [4] $end
$var wire 1 r \inst|D_sig\ [3] $end
$var wire 1 s \inst|D_sig\ [2] $end
$var wire 1 t \inst|D_sig\ [1] $end
$var wire 1 u \inst|D_sig\ [0] $end
$upscope $end
$upscope $end
$enddefinitions $end
#0
$dumpvars
00
01
0:
0?
1@
xA
1B
1C
1D
1E
1F
1G
0c
0d
0e
xf
xg
xh
xi
0;
0<
0=
0>
0H
0I
0J
0K
0L
0M
0N
0O
0P
0Q
0R
xS
xT
xU
xV
0W
0X
0Y
0Z
x[
x\
x]
x^
x_
x`
xa
xb
xj
xk
xl
xm
0n
0o
0p
0q
0r
0s
0t
0u
0!
0"
0#
0$
0%
0&
0'
0(
0)
0*
0+
x,
x-
x.
x/
x2
x3
x4
x5
x6
x7
x8
x9
$end
#986
0j
0k
0l
0m
0f
0g
0h
#8063
0U
0.
#8758
1i
#11971
0S
0,
#12385
0V
0/
#12500
11
1c
#13486
1f
#14252
0T
0-
#15402
0_
0\
0[
06
03
02
#15769
0b
0a
0`
0^
09
08
07
05
#16084
0]
04
#17826
1u
1t
1s
1q
1p
#24378
1^
15
#24380
1b
19
#24394
1a
18
#24958
1`
17
#25000
01
0c
#25986
0f
#26820
1]
14
#37500
11
1c
#38486
1f
#50000
01
1>
0c
1Z
#50986
1m
0f
#62385
1V
1/
#62500
11
1c
#63486
1f
#67826
0t
0s
0q
0p
#74378
0^
05
#74394
0a
08
#74958
0`
07
#75000
01
0c
#75986
0f
#76820
0]
04
#87500
11
1c
#88486
1f
#100000
01
0>
1=
0c
0Z
1Y
#100986
1l
0m
0f
#108063
1U
1.
#112385
0V
0/
#112500
11
1c
#113486
1f
#117826
0u
1s
1o
#124380
0b
09
#124511
1\
13
#124958
1`
17
#125000
01
0c
#125986
0f
#137500
11
1c
#138486
1f
#150000
01
1>
0c
1Z
#150986
1m
0f
#162385
1V
1/
#162500
11
1c
#163486
1f
#167826
1u
1t
1r
1p
1n
#174380
1b
19
#174394
1a
18
#174463
1[
12
#174477
1_
16
#175000
01
0c
#175986
0f
#176820
1]
14
#187500
11
1c
#188486
1f
#200000
01
0>
0=
1<
0c
0Z
0Y
1X
#200986
1k
0l
0m
0f
#208063
0U
0.
#212385
0V
0/
#212500
11
1c
#213486
1f
#214252
1T
1-
#217826
0u
0s
1q
0p
0o
0n
#224378
1^
15
#224380
0b
09
#224463
0[
02
#224511
0\
03
#224958
0`
07
#225000
01
0c
#225986
0f
#226820
0]
04
#237500
11
1c
#238486
1f
#250000
01
1>
0c
1Z
#250986
1m
0f
#262385
1V
1/
#262500
11
1c
#263486
1f
#267826
1u
1n
#274380
1b
19
#274463
1[
12
#275000
01
0c
#275986
0f
#287500
11
1c
#288486
1f
#300000
01
0>
1=
0c
0Z
1Y
#300986
1l
0m
0f
#308063
1U
1.
#312385
0V
0/
#312500
11
1c
#313486
1f
#317826
1s
0r
0q
1o
0n
#324378
0^
05
#324463
0[
02
#324477
0_
06
#324511
1\
13
#324958
1`
17
#325000
01
0c
#325986
0f
#337500
11
1c
#338486
1f
#350000
01
1>
0c
1Z
#350986
1m
0f
#362385
1V
1/
#362500
11
1c
#363486
1f
#367826
0u
0s
1q
0o
#374378
1^
15
#374380
0b
09
#374511
0\
03
#374958
0`
07
#375000
01
0c
#375986
0f
#387500
11
1c
#388486
1f
#400000
01
0>
0=
0<
1;
0c
0Z
0Y
0X
1W
#400986
1j
0k
0l
0m
0f
#408063
0U
0.
#411971
1S
1,
#412385
0V
0/
#412500
11
1c
#413486
1f
#414252
0T
0-
#417826
0t
0q
#424378
0^
05
#424394
0a
08
#425000
01
0c
#425986
0f
#437500
11
1c
#438486
1f
#450000
01
1>
0c
1Z
#450986
1m
0f
#462385
1V
1/
#462500
11
1c
#463486
1f
#475000
01
0c
#475986
0f
#487500
11
1c
#488486
1f
#500000
01
0>
1=
0c
0Z
1Y
#500986
1l
0m
0f
#508063
1U
1.
#512385
0V
0/
#512500
11
1c
#513486
1f
#525000
01
10
0c
1e
#525986
1h
0f
#533758
0i
#537500
11
1c
#538486
1f
#541498
z_
z\
z[
z6
z3
z2
#541865
zb
za
z`
z^
z9
z8
z7
z5
#542180
z]
z4
#550000
01
1>
0c
1Z
#550986
1m
0f
#562385
1V
1/
#562500
11
1c
#563486
1f
#575000
01
0c
#575986
0f
#587500
11
1c
#588486
1f
#600000
01
0>
0=
1<
1:
0c
0Z
0Y
1X
1d
#600986
1g
1k
0l
0m
0f
#608063
0U
0.
#612385
0V
0/
#612500
11
1c
#613486
1f
#614252
1T
1-
#625000
01
0c
#625986
0f
#637500
11
1c
#638486
1f
#650000
01
1>
00
0c
1Z
0e
#650986
0h
1m
0f
#662385
1V
1/
#662500
11
1c
#663486
1f
#675000
01
0c
#675986
0f
#687500
11
1c
#688486
1f
#700000
01
0>
1=
0c
0Z
1Y
#700986
1l
0m
0f
#708063
1U
1.
#712385
0V
0/
#712500
11
1c
#713486
1f
#725000
01
0:
0c
0d
#725986
0g
0f
#732131
1i
#737500
11
1c
#738486
1f
#738775
0_
0\
0[
06
03
02
#739142
0b
0a
0`
0^
09
08
07
05
#739457
0]
04
#750000
01
1>
0c
1Z
#750986
1m
0f
#762385
1V
1/
#762500
11
1c
#763486
1f
#775000
01
0c
#775986
0f
#787500
11
1c
#788486
1f
#800000
01
0>
0=
0<
0;
0c
0Z
0Y
0X
0W
#800986
0j
0k
0l
0m
0f
#808063
0U
0.
#811971
0S
0,
#812385
0V
0/
#812500
11
1c
#813486
1f
#814252
0T
0-
#817826
1u
1t
1s
1q
1p
#824378
1^
15
#824380
1b
19
#824394
1a
18
#824958
1`
17
#825000
01
0c
#825986
0f
#826820
1]
14
#837500
11
1c
#838486
1f
#850000
01
1>
0c
1Z
#850986
1m
0f
#862385
1V
1/
#862500
11
1c
#863486
1f
#867826
0t
0s
0q
0p
#874378
0^
05
#874394
0a
08
#874958
0`
07
#875000
01
0c
#875986
0f
#876820
0]
04
#887500
11
1c
#888486
1f
#900000
01
0>
1=
0c
0Z
1Y
#900986
1l
0m
0f
#908063
1U
1.
#912385
0V
0/
#912500
11
1c
#913486
1f
#917826
0u
1s
1o
#924380
0b
09
#924511
1\
13
#924958
1`
17
#925000
01
0c
#925986
0f
#937500
11
1c
#938486
1f
#950000
01
1>
0c
1Z
#950986
1m
0f
#962385
1V
1/
#962500
11
1c
#963486
1f
#967826
1u
1t
1r
1p
1n
#974380
1b
19
#974394
1a
18
#974463
1[
12
#974477
1_
16
#975000
01
0c
#975986
0f
#976820
1]
14
#987500
11
1c
#988486
1f
#1000000
01
0>
0=
1<
0c
0Z
0Y
1X
#1000986
1k
0l
0m
0f
#1008063
0U
0.
#1012385
0V
0/
#1012500
11
1c
#1013486
1f
#1014252
1T
1-
#1017826
0u
0s
1q
0p
0o
0n
#1024378
1^
15
#1024380
0b
09
#1024463
0[
02
#1024511
0\
03
#1024958
0`
07
#1025000
01
0c
#1025986
0f
#1026820
0]
04
#1037500
11
1c
#1038486
1f
#1050000
01
1>
0c
1Z
#1050986
1m
0f
#1062385
1V
1/
#1062500
11
1c
#1063486
1f
#1067826
1u
1n
#1074380
1b
19
#1074463
1[
12
#1075000
01
0c
#1075986
0f
#1087500
11
1c
#1088486
1f
#1100000
01
0>
1=
0c
0Z
1Y
#1100986
1l
0m
0f
#1108063
1U
1.
#1112385
0V
0/
#1112500
11
1c
#1113486
1f
#1117826
1s
0r
0q
1o
0n
#1124378
0^
05
#1124463
0[
02
#1124477
0_
06
#1124511
1\
13
#1124958
1`
17
#1125000
01
0c
#1125986
0f
#1137500
11
1c
#1138486
1f
#1150000
01
1>
0c
1Z
#1150986
1m
0f
#1162385
1V
1/
#1162500
11
1c
#1163486
1f
#1167826
0u
0s
1q
0o
#1174378
1^
15
#1174380
0b
09
#1174511
0\
03
#1174958
0`
07
#1175000
01
0c
#1175986
0f
#1187500
11
1c
#1188486
1f
#1200000
01
0>
0=
0<
1;
0c
0Z
0Y
0X
1W
#1200986
1j
0k
0l
0m
0f
#1208063
0U
0.
#1211971
1S
1,
#1212385
0V
0/
#1212500
11
1c
#1213486
1f
#1214252
0T
0-
#1217826
0t
0q
#1224378
0^
05
#1224394
0a
08
#1225000
01
0c
#1225986
0f
#1237500
11
1c
#1238486
1f
#1250000
01
1>
0c
1Z
#1250986
1m
0f
#1262385
1V
1/
#1262500
11
1c
#1263486
1f
#1275000
01
0c
#1275986
0f
#1287500
11
1c
#1288486
1f
#1300000
01
0>
1=
0c
0Z
1Y
#1300986
1l
0m
0f
#1308063
1U
1.
#1312385
0V
0/
#1312500
11
1c
#1313486
1f
#1325000
01
0c
#1325986
0f
#1337500
11
1c
#1338486
1f
#1350000
01
1>
0c
1Z
#1350986
1m
0f
#1362385
1V
1/
#1362500
11
1c
#1363486
1f
#1375000
01
0c
#1375986
0f
#1387500
11
1c
#1388486
1f
#1400000
01
0>
0=
1<
0c
0Z
0Y
1X
#1400986
1k
0l
0m
0f
#1408063
0U
0.
#1412385
0V
0/
#1412500
11
1c
#1413486
1f
#1414252
1T
1-
#1425000
01
0c
#1425986
0f
#1437500
11
1c
#1438486
1f
#1450000
01
1>
0c
1Z
#1450986
1m
0f
#1462385
1V
1/
#1462500
11
1c
#1463486
1f
#1475000
01
0c
#1475986
0f
#1487500
11
1c
#1488486
1f
#1500000
01
0>
1=
0c
0Z
1Y
#1500986
1l
0m
0f
#1508063
1U
1.
#1512385
0V
0/
#1512500
11
1c
#1513486
1f
#1525000
01
0c
#1525986
0f
#1537500
11
1c
#1538486
1f
#1550000
01
1>
0c
1Z
#1550986
1m
0f
#1562385
1V
1/
#1562500
11
1c
#1563486
1f
#1575000
01
0c
#1575986
0f
#1587500
11
1c
#1588486
1f
#1600000
01
0>
0=
0<
0;
0c
0Z
0Y
0X
0W
#1600986
0j
0k
0l
0m
0f
#1608063
0U
0.
#1611971
0S
0,
#1612385
0V
0/
#1612500
11
1c
#1613486
1f
#1614252
0T
0-
#1617826
1u
1t
1s
1q
1p
#1624378
1^
15
#1624380
1b
19
#1624394
1a
18
#1624958
1`
17
#1625000
01
0c
#1625986
0f
#1626820
1]
14
#1637500
11
1c
#1638486
1f
#1650000
01
1>
0c
1Z
#1650986
1m
0f
#1662385
1V
1/
#1662500
11
1c
#1663486
1f
#1667826
0t
0s
0q
0p
#1674378
0^
05
#1674394
0a
08
#1674958
0`
07
#1675000
01
0c
#1675986
0f
#1676820
0]
04
#1687500
11
1c
#1688486
1f
#1700000
01
0>
1=
0c
0Z
1Y
#1700986
1l
0m
0f
#1708063
1U
1.
#1712385
0V
0/
#1712500
11
1c
#1713486
1f
#1717826
0u
1s
1o
#1724380
0b
09
#1724511
1\
13
#1724958
1`
17
#1725000
01
0c
#1725986
0f
#1737500
11
1c
#1738486
1f
#1750000
01
1>
0c
1Z
#1750986
1m
0f
#1762385
1V
1/
#1762500
11
1c
#1763486
1f
#1767826
1u
1t
1r
1p
1n
#1774380
1b
19
#1774394
1a
18
#1774463
1[
12
#1774477
1_
16
#1775000
01
0c
#1775986
0f
#1776820
1]
14
#1787500
11
1c
#1788486
1f
#1800000
01
0>
0=
1<
0c
0Z
0Y
1X
#1800986
1k
0l
0m
0f
#1808063
0U
0.
#1812385
0V
0/
#1812500
11
1c
#1813486
1f
#1814252
1T
1-
#1817826
0u
0s
1q
0p
0o
0n
#1824378
1^
15
#1824380
0b
09
#1824463
0[
02
#1824511
0\
03
#1824958
0`
07
#1825000
01
0c
#1825986
0f
#1826820
0]
04
#1837500
11
1c
#1838486
1f
#1850000
01
1>
0c
1Z
#1850986
1m
0f
#1862385
1V
1/
#1862500
11
1c
#1863486
1f
#1867826
1u
1n
#1874380
1b
19
#1874463
1[
12
#1875000
01
0c
#1875986
0f
#1887500
11
1c
#1888486
1f
#1900000
01
0>
1=
0c
0Z
1Y
#1900986
1l
0m
0f
#1908063
1U
1.
#1912385
0V
0/
#1912500
11
1c
#1913486
1f
#1917826
1s
0r
0q
1o
0n
#1924378
0^
05
#1924463
0[
02
#1924477
0_
06
#1924511
1\
13
#1924958
1`
17
#1925000
01
0c
#1925986
0f
#1937500
11
1c
#1938486
1f
#1950000
01
1>
0c
1Z
#1950986
1m
0f
#1962385
1V
1/
#1962500
11
1c
#1963486
1f
#1967826
0u
0s
1q
0o
#1974378
1^
15
#1974380
0b
09
#1974511
0\
03
#1974958
0`
07
#1975000
01
0c
#1975986
0f
#1987500
11
1c
#1988486
1f
