lab5/Lab5_DFF_Traf_Cont/simulation/qsim/Lab5_DFF_Traf_Cont.msim.vcd
$comment
	File created using the following command:
		vcd file Lab5_DFF_Traf_Cont.msim.vcd -direction
$end
$date
	Sun Jul 14 16:23:28 2019
$end
$version
	ModelSim Version 10.5b
$end
$timescale
	1ps
$end

$scope module Lab5_DFF_Traf_Cont_vlg_vec_tst $end
$var reg 1 ! CLK $end
$var reg 1 " CW $end
$var reg 1 # EV_L $end
$var wire 1 $ D0 $end
$var wire 1 % D1 $end
$var wire 1 & D2 $end
$var wire 1 ' D3 $end
$var wire 1 ( Green $end
$var wire 1 ) Red $end
$var wire 1 * Yellow $end

$scope module i1 $end
$var wire 1 + gnd $end
$var wire 1 , vcc $end
$var wire 1 - unknown $end
$var tri1 1 . devclrn $end
$var tri1 1 / devpor $end
$var tri1 1 0 devoe $end
$var wire 1 1 ~QUARTUS_CREATED_GND~I_combout $end
$var wire 1 2 ~QUARTUS_CREATED_UNVM~~busy $end
$var wire 1 3 D3~output_o $end
$var wire 1 4 D2~output_o $end
$var wire 1 5 D1~output_o $end
$var wire 1 6 D0~output_o $end
$var wire 1 7 Green~output_o $end
$var wire 1 8 Yellow~output_o $end
$var wire 1 9 Red~output_o $end
$var wire 1 : CLK~input_o $end
$var wire 1 ; CLK~inputclkctrl_outclk $end
$var wire 1 < EV_L~input_o $end
$var wire 1 = inst~q $end
$var wire 1 > CW~input_o $end
$var wire 1 ? inst1|D2~0_combout $end
$var wire 1 @ inst1|Y~0_combout $end
$var wire 1 A inst1|D2~1_combout $end
$var wire 1 B inst2~feeder_combout $end
$var wire 1 C inst2~q $end
$var wire 1 D inst1|D1~0_combout $end
$var wire 1 E inst1|D1~1_combout $end
$var wire 1 F inst3~feeder_combout $end
$var wire 1 G inst3~q $end
$var wire 1 H inst1|D3~0_combout $end
$var wire 1 I inst1|D0~0_combout $end
$var wire 1 J inst1|D0~1_combout $end
$var wire 1 K inst1|D0~2_combout $end
$var wire 1 L inst1|D0~3_combout $end
$var wire 1 M inst4~q $end
$var wire 1 N inst1|R~0_combout $end
$var wire 1 O inst1|D3~1_combout $end
$var wire 1 P inst1|Y~combout $end
$var wire 1 Q inst1|R~1_combout $end
$upscope $end
$upscope $end
$enddefinitions $end
#0
$dumpvars
0!
1"
1#
1$
0%
0&
0'
1(
0)
0*
0+
1,
x-
1.
1/
10
01
z2
03
04
05
16
17
08
09
0:
0;
1<
0=
1>
0?
1@
0A
0B
0C
0D
0E
0F
0G
0H
1I
0J
1K
1L
0M
0N
0O
0P
0Q
$end
#25000
1!
1:
1;
1M
0K
1D
0L
1E
15
06
0$
1%
1F
#50000
0!
0:
0;
#75000
1!
1:
1;
0M
1G
1K
1L
16
1$
#100000
0!
0:
0;
#125000
1!
1:
1;
1M
0K
1J
0D
1?
1K
0L
0E
1A
14
05
06
0$
0%
1&
1L
0F
1B
16
1$
#150000
0!
0:
0;
#175000
1!
1:
1;
0G
1C
0J
1D
0@
0?
0I
0A
04
07
0K
0(
0&
1E
1P
1A
0B
14
18
15
1%
1*
1&
0L
1F
1B
06
0$
#200000
0!
0:
0;
#225000
1!
1:
1;
0M
1G
1J
1K
1L
16
1$
#250000
0!
0:
0;
#275000
1!
1:
1;
1M
1N
0K
0D
1@
1?
1Q
19
1)
1O
0L
0E
0P
0A
04
08
05
06
13
1'
0$
0%
0*
0&
0F
0B
#300000
0!
0:
0;
#325000
1!
1:
1;
0M
0G
0C
1=
0N
1K
0J
0?
1H
0K
1L
16
1$
#350000
0!
0:
0;
#375000
1!
1:
1;
1M
1D
0O
0L
06
03
0'
0$
#400000
0#
0!
0:
0<
0;
1?
1O
1L
16
13
1'
1$
#425000
1!
1:
1;
#450000
1#
0!
0:
1<
0;
0?
0O
0L
06
03
0'
0$
#475000
1!
1:
1;
0M
0=
0D
0H
0Q
1O
1L
1I
1E
15
17
16
13
09
1K
0)
1'
1$
1(
1%
0E
0O
0L
1F
06
03
05
0%
0'
0$
1L
0F
16
1$
#500000
0!
0:
0;
#525000
1!
1:
1;
1M
0K
1D
0L
1E
15
06
0$
1%
1F
#550000
0!
0:
0;
#575000
1!
1:
1;
0M
1G
1K
1L
16
1$
#600000
0!
0:
0;
#625000
1!
1:
1;
1M
0K
1J
0D
1?
1K
0L
0E
1A
14
05
06
0$
0%
1&
1L
0F
1B
16
1$
#650000
0!
0:
0;
#675000
1!
1:
1;
0G
1C
0J
1D
0@
0?
0I
0A
04
07
0K
0(
0&
1E
1P
1A
0B
14
18
15
1%
1*
1&
0L
1F
1B
06
0$
#700000
0!
0:
0;
#725000
1!
1:
1;
0M
1G
1J
1K
1L
16
1$
#750000
0!
0:
0;
#775000
1!
1:
1;
1M
1N
0K
0D
1@
1?
1Q
19
1)
1O
0L
0E
0P
0A
04
08
05
06
13
1'
0$
0%
0*
0&
0F
0B
#800000
0!
0:
0;
#825000
1!
1:
1;
0M
0G
0C
1=
0N
1K
0J
0?
1H
0K
1L
16
1$
#850000
0!
0:
0;
#875000
1!
1:
1;
1M
1D
0O
0L
06
03
0'
0$
#900000
0!
0:
0;
#925000
1!
1:
1;
0M
0=
0D
0H
0Q
1O
1L
1I
1E
15
17
16
13
09
1K
0)
1'
1$
1(
1%
0E
0O
0L
1F
06
03
05
0%
0'
0$
1L
0F
16
1$
#950000
0!
0:
0;
#975000
1!
1:
1;
1M
0K
1D
0L
1E
15
06
0$
1%
1F
#1000000
0!
0:
0;
#1025000
1!
1:
1;
0M
1G
1K
1L
16
1$
#1050000
0!
0:
0;
#1075000
1!
1:
1;
1M
0K
1J
0D
1?
1K
0L
0E
1A
14
05
06
0$
0%
1&
1L
0F
1B
16
1$
#1100000
0!
0:
0;
#1125000
1!
1:
1;
0G
1C
0J
1D
0@
0?
0I
0A
04
07
0K
0(
0&
1E
1P
1A
0B
14
18
15
1%
1*
1&
0L
1F
1B
06
0$
#1150000
0!
0:
0;
#1175000
1!
1:
1;
0M
1G
1J
1K
1L
16
1$
