Exam1/simulation/qsim/Exam1.msim.vcd
$comment
	File created using the following command:
		vcd file Exam1.msim.vcd -direction
$end
$date
	Thu Jun 20 14:37:21 2019
$end
$version
	ModelSim Version 10.5b
$end
$timescale
	1ps
$end

$scope module Exam1_vlg_vec_tst $end
$var reg 1 ! clk $end
$var reg 1 " start $end
$var wire 1 # Q0 $end
$var wire 1 $ Q1 $end
$var wire 1 % Y $end

$scope module i1 $end
$var wire 1 & gnd $end
$var wire 1 ' vcc $end
$var wire 1 ( unknown $end
$var tri1 1 ) devclrn $end
$var tri1 1 * devpor $end
$var tri1 1 + devoe $end
$var wire 1 , ~QUARTUS_CREATED_GND~I_combout $end
$var wire 1 - ~QUARTUS_CREATED_UNVM~~busy $end
$var wire 1 . Q1~output_o $end
$var wire 1 / Q0~output_o $end
$var wire 1 0 Y~output_o $end
$var wire 1 1 clk~input_o $end
$var wire 1 2 clk~inputclkctrl_outclk $end
$var wire 1 3 inst|9~0_combout $end
$var wire 1 4 start~input_o $end
$var wire 1 5 start~inputclkctrl_outclk $end
$var wire 1 6 inst|9~q $end
$var wire 1 7 inst|10~0_combout $end
$var wire 1 8 inst|10~q $end
$var wire 1 9 inst5~combout $end
$upscope $end
$upscope $end
$enddefinitions $end
#0
$dumpvars
0!
0"
0#
1$
0%
0&
1'
x(
1)
1*
1+
0,
z-
1.
0/
00
01
02
13
04
05
06
17
08
09
$end
#25000
1!
11
12
#50000
0!
01
02
#75000
1"
1!
11
14
15
12
16
18
1/
0.
0$
1#
03
#100000
0!
01
02
#125000
1!
11
12
06
1.
1$
19
07
13
10
1%
#150000
0!
01
02
#175000
1!
11
12
16
08
0/
0.
0$
0#
09
03
00
0%
#200000
0!
01
02
#225000
1!
11
12
06
1.
1$
17
13
#250000
0!
01
02
#275000
1!
11
12
16
18
1/
0.
0$
1#
03
#300000
0!
01
02
#325000
0"
1!
11
04
05
12
06
08
0/
1.
1$
0#
13
#350000
0!
01
02
#375000
1!
11
12
#400000
1"
0!
01
14
15
02
#425000
1!
11
12
16
18
1/
0.
0$
1#
03
#450000
0!
01
02
#475000
1!
11
12
06
1.
1$
19
07
13
10
1%
#500000
0!
01
02
#525000
1!
11
12
16
08
0/
0.
0$
0#
09
03
00
0%
#550000
0!
01
02
#575000
1!
11
12
06
1.
1$
17
13
#600000
0!
01
02
#625000
1!
11
12
16
18
1/
0.
0$
1#
03
#650000
0!
01
02
#675000
1!
11
12
06
1.
1$
19
07
13
10
1%
#700000
0!
01
02
#725000
1!
11
12
16
08
0/
0.
0$
0#
09
03
00
0%
#750000
0!
01
02
#775000
1!
11
12
06
1.
1$
17
13
#800000
0!
01
02
#825000
1!
11
12
16
18
1/
0.
0$
1#
03
#850000
0!
01
02
#875000
1!
11
12
06
1.
1$
19
07
13
10
1%
#900000
0!
01
02
#925000
1!
11
12
16
08
0/
0.
0$
0#
09
03
00
0%
#950000
0!
01
02
#975000
1!
11
12
06
1.
1$
17
13
