lab1/lab1b/simulation/qsim/lab1b.msim.vcd
$comment
	File created using the following command:
		vcd file lab1b.msim.vcd -direction
$end
$date
	Mon May 27 21:01:21 2019
$end
$version
	ModelSim Version 10.5b
$end
$timescale
	1ps
$end

$scope module lab1b_vlg_vec_tst $end
$var reg 1 ! A_L $end
$var reg 1 " B $end
$var reg 1 # C $end
$var reg 1 $ D_L $end
$var wire 1 % X $end

$scope module i1 $end
$var wire 1 & gnd $end
$var wire 1 ' vcc $end
$var wire 1 ( unknown $end
$var tri1 1 ) devclrn $end
$var tri1 1 * devpor $end
$var tri1 1 + devoe $end
$var wire 1 , ~QUARTUS_CREATED_GND~I_combout $end
$var wire 1 - ~QUARTUS_CREATED_UNVM~~busy $end
$var wire 1 . X~output_o $end
$var wire 1 / A_L~input_o $end
$var wire 1 0 D_L~input_o $end
$var wire 1 1 B~input_o $end
$var wire 1 2 C~input_o $end
$var wire 1 3 inst2~0_combout $end
$upscope $end
$upscope $end
$enddefinitions $end
#0
$dumpvars
0!
0"
0#
0$
0%
0&
1'
x(
1)
1*
1+
0,
z-
0.
0/
00
01
02
13
$end
#20000
1$
10
#40000
1#
0$
00
12
#60000
1$
10
#80000
1"
0#
0$
00
02
11
#100000
1$
10
#120000
1#
0$
00
12
#140000
1$
10
#160000
1!
0"
0#
0$
00
02
01
1/
#180000
1$
10
#200000
1#
0$
00
12
#220000
1$
10
#240000
1"
0#
0$
00
02
11
03
1.
1%
#260000
1$
10
#280000
1#
0$
00
12
#300000
1$
10
13
0.
0%
#320000
0!
0"
0#
0$
00
02
01
0/
#340000
1$
10
#360000
1#
0$
00
12
#380000
1$
10
#400000
1"
0#
0$
00
02
11
#420000
1$
10
#440000
1#
0$
00
12
#460000
1$
10
#480000
1!
0"
0#
0$
00
02
01
1/
#500000
1$
10
#520000
1#
0$
00
12
#540000
1$
10
#560000
1"
0#
0$
00
02
11
03
1.
1%
#580000
1$
10
#600000
1#
0$
00
12
#620000
1$
10
13
0.
0%
#640000
0!
0"
0#
0$
00
02
01
0/
#660000
1$
10
#680000
1#
0$
00
12
#700000
1$
10
#720000
1"
0#
0$
00
02
11
#740000
1$
10
#760000
1#
0$
00
12
#780000
1$
10
#800000
1!
0"
0#
0$
00
02
01
1/
#820000
1$
10
#840000
1#
0$
00
12
#860000
1$
10
#880000
1"
0#
0$
00
02
11
03
1.
1%
#900000
1$
10
#920000
1#
0$
00
12
#940000
1$
10
13
0.
0%
#960000
0!
0"
0#
0$
00
02
01
0/
#980000
1$
10
#1000000
1#
0$
00
12
#1020000
1$
10
#1040000
1"
0#
0$
00
02
11
#1060000
1$
10
#1080000
1#
0$
00
12
#1100000
1$
10
#1120000
1!
0"
0#
0$
00
02
01
1/
#1140000
1$
10
#1160000
1#
0$
00
12
#1180000
1$
10
