Exam2/simulation/qsim/Exam2.msim.vcd
$comment
	File created using the following command:
		vcd file Exam2.msim.vcd -direction
$end
$date
	Tue Aug 06 14:31:48 2019
$end
$version
	ModelSim Version 10.5b
$end
$timescale
	1ps
$end

$scope module Exam2_vlg_vec_tst $end
$var reg 1 ! CLK $end
$var reg 1 " Reset $end
$var wire 1 # G $end
$var wire 1 $ Y0 $end
$var wire 1 % Y1 $end
$var wire 1 & Y2 $end
$var wire 1 ' Y3 $end
$var wire 1 ( Y4 $end
$var wire 1 ) Y5 $end

$scope module i1 $end
$var wire 1 * gnd $end
$var wire 1 + vcc $end
$var wire 1 , unknown $end
$var tri1 1 - devclrn $end
$var tri1 1 . devpor $end
$var tri1 1 / devoe $end
$var wire 1 0 ~QUARTUS_CREATED_GND~I_combout $end
$var wire 1 1 ~QUARTUS_CREATED_UNVM~~busy $end
$var wire 1 2 Y5~output_o $end
$var wire 1 3 Y4~output_o $end
$var wire 1 4 Y3~output_o $end
$var wire 1 5 Y2~output_o $end
$var wire 1 6 Y1~output_o $end
$var wire 1 7 Y0~output_o $end
$var wire 1 8 G~output_o $end
$var wire 1 9 CLK~input_o $end
$var wire 1 : CLK~inputclkctrl_outclk $end
$var wire 1 ; inst5~combout $end
$var wire 1 < Reset~input_o $end
$var wire 1 = Reset~inputclkctrl_outclk $end
$var wire 1 > inst2~q $end
$var wire 1 ? inst7~combout $end
$var wire 1 @ inst1~q $end
$var wire 1 A inst~combout $end
$var wire 1 B inst23~0_combout $end
$upscope $end
$upscope $end
$enddefinitions $end
#0
$dumpvars
0!
0"
0#
0$
0%
0&
0'
0(
0)
0*
1+
x,
1-
1.
1/
00
z1
02
03
04
05
06
07
08
09
0:
0;
0<
0=
0>
1?
0@
0A
0B
$end
#25000
1!
19
1:
#50000
1"
0!
09
1<
1=
0:
#75000
1!
19
1:
1@
1B
0?
1;
17
1$
#100000
0!
09
0:
#125000
1!
19
1:
0@
1>
1A
0;
13
14
15
16
18
1#
1%
1&
1'
1(
#150000
0!
09
0:
#175000
1!
19
1:
0>
0B
0A
1?
03
04
05
06
08
07
0$
0#
0%
0&
0'
0(
#200000
0!
09
0:
#225000
1!
19
1:
1@
1B
0?
1;
17
1$
#250000
0"
0!
09
0<
0=
0:
0@
0B
1?
0;
07
0$
#275000
1!
19
1:
#300000
0!
09
0:
#325000
1!
19
1:
#350000
1"
0!
09
1<
1=
0:
#375000
1!
19
1:
1@
1B
0?
1;
17
1$
#400000
0!
09
0:
#425000
1!
19
1:
0@
1>
1A
0;
13
14
15
16
18
1#
1%
1&
1'
1(
#450000
0!
09
0:
#475000
1!
19
1:
0>
0B
0A
1?
03
04
05
06
08
07
0$
0#
0%
0&
0'
0(
#500000
0!
09
0:
#525000
1!
19
1:
1@
1B
0?
1;
17
1$
#550000
0!
09
0:
#575000
1!
19
1:
0@
1>
1A
0;
13
14
15
16
18
1#
1%
1&
1'
1(
#600000
0!
09
0:
#625000
1!
19
1:
0>
0B
0A
1?
03
04
05
06
08
07
0$
0#
0%
0&
0'
0(
#650000
0!
09
0:
#675000
1!
19
1:
1@
1B
0?
1;
17
1$
#700000
0!
09
0:
#725000
1!
19
1:
0@
1>
1A
0;
13
14
15
16
18
1#
1%
1&
1'
1(
#750000
0!
09
0:
#775000
1!
19
1:
0>
0B
0A
1?
03
04
05
06
08
07
0$
0#
0%
0&
0'
0(
#800000
0!
09
0:
#825000
1!
19
1:
1@
1B
0?
1;
17
1$
#850000
0!
09
0:
#875000
1!
19
1:
0@
1>
1A
0;
13
14
15
16
18
1#
1%
1&
1'
1(
#900000
0!
09
0:
#925000
1!
19
1:
0>
0B
0A
1?
03
04
05
06
08
07
0$
0#
0%
0&
0'
0(
#950000
0!
09
0:
#975000
1!
19
1:
1@
1B
0?
1;
17
1$
