lab1/lab1a/simulation/qsim/lab1a.msim.vcd
$comment
	File created using the following command:
		vcd file lab1a.msim.vcd -direction
$end
$date
	Mon May 27 20:11:01 2019
$end
$version
	ModelSim Version 10.5b
$end
$timescale
	1ps
$end

$scope module lab1a_vlg_vec_tst $end
$var reg 1 ! A $end
$var reg 1 " B $end
$var reg 1 # C $end
$var reg 1 $ D $end
$var wire 1 % W $end

$scope module i1 $end
$var wire 1 & gnd $end
$var wire 1 ' vcc $end
$var wire 1 ( unknown $end
$var tri1 1 ) devclrn $end
$var tri1 1 * devpor $end
$var tri1 1 + devoe $end
$var wire 1 , ~QUARTUS_CREATED_GND~I_combout $end
$var wire 1 - ~QUARTUS_CREATED_UNVM~~busy $end
$var wire 1 . W~output_o $end
$var wire 1 / B~input_o $end
$var wire 1 0 C~input_o $end
$var wire 1 1 D~input_o $end
$var wire 1 2 A~input_o $end
$var wire 1 3 inst4~0_combout $end
$upscope $end
$upscope $end
$enddefinitions $end
#0
$dumpvars
0!
0"
0#
0$
0%
0&
1'
x(
1)
1*
1+
0,
z-
0.
0/
00
01
02
13
$end
#25000
1$
11
#50000
1#
0$
01
10
#75000
1$
11
#100000
1"
0#
0$
01
00
1/
03
1.
1%
#125000
1$
11
#150000
1#
0$
01
10
13
0.
0%
#175000
1$
11
03
1.
1%
#200000
1!
0"
0#
0$
01
00
0/
12
13
0.
0%
#225000
1$
11
#250000
1#
0$
01
10
#275000
1$
11
#300000
1"
0#
0$
01
00
1/
#325000
1$
11
#350000
1#
0$
01
10
#375000
1$
11
#400000
0!
0"
0#
0$
01
00
0/
02
#425000
1$
11
#450000
1#
0$
01
10
#475000
1$
11
#500000
1"
0#
0$
01
00
1/
03
1.
1%
#525000
1$
11
#550000
1#
0$
01
10
13
0.
0%
#575000
1$
11
03
1.
1%
#600000
1!
0"
0#
0$
01
00
0/
12
13
0.
0%
#625000
1$
11
#650000
1#
0$
01
10
#675000
1$
11
#700000
1"
0#
0$
01
00
1/
#725000
1$
11
#750000
1#
0$
01
10
#775000
1$
11
#800000
0!
0"
0#
0$
01
00
0/
02
#825000
1$
11
#850000
1#
0$
01
10
#875000
1$
11
#900000
1"
0#
0$
01
00
1/
03
1.
1%
#925000
1$
11
#950000
1#
0$
01
10
13
0.
0%
#975000
1$
11
03
1.
1%
#999000
0"
0#
0$
01
00
0/
13
0.
0%
