lab6/Lab6_Part2_ext_ROM/simulation/qsim/Lab6_Part2_ext_ROM.msim.vcd
$comment
	File created using the following command:
		vcd file Lab6_Part2_ext_ROM.msim.vcd -direction
$end
$date
	Mon Jul 22 12:37:33 2019
$end
$version
	ModelSim Version 10.5b
$end
$timescale
	1ps
$end

$scope module lab6_part2_ext_rom_vhd_vec_tst $end
$var wire 1 ! A0 $end
$var wire 1 " A1 $end
$var wire 1 # A2 $end
$var wire 1 $ A3 $end
$var wire 1 % Addr [14] $end
$var wire 1 & Addr [13] $end
$var wire 1 ' Addr [12] $end
$var wire 1 ( Addr [11] $end
$var wire 1 ) Addr [10] $end
$var wire 1 * Addr [9] $end
$var wire 1 + Addr [8] $end
$var wire 1 , Addr [7] $end
$var wire 1 - Addr [6] $end
$var wire 1 . Addr [5] $end
$var wire 1 / Addr [4] $end
$var wire 1 0 Addr [3] $end
$var wire 1 1 Addr [2] $end
$var wire 1 2 Addr [1] $end
$var wire 1 3 Addr [0] $end
$var wire 1 4 B0 $end
$var wire 1 5 B1 $end
$var wire 1 6 B2 $end
$var wire 1 7 B3 $end
$var wire 1 8 CE_L $end
$var wire 1 9 CIN $end
$var wire 1 : CLK $end
$var wire 1 ; COUT $end
$var wire 1 < IR0 $end
$var wire 1 = IR1 $end
$var wire 1 > IR2 $end
$var wire 1 ? IRLD $end
$var wire 1 @ MemCLK $end
$var wire 1 A MSA0 $end
$var wire 1 B MSA1 $end
$var wire 1 C MSB0 $end
$var wire 1 D MSB1 $end
$var wire 1 E MSC0 $end
$var wire 1 F MSC1 $end
$var wire 1 G MSC2 $end
$var wire 1 H OE_L $end
$var wire 1 I OUT0 $end
$var wire 1 J OUT1 $end
$var wire 1 K OUT2 $end
$var wire 1 L OUT3 $end
$var wire 1 M PCINC $end
$var wire 1 N PCLD $end
$var wire 1 O RESET $end

$scope module i1 $end
$var wire 1 P gnd $end
$var wire 1 Q vcc $end
$var wire 1 R unknown $end
$var wire 1 S devoe $end
$var wire 1 T devclrn $end
$var wire 1 U devpor $end
$var wire 1 V ww_devoe $end
$var wire 1 W ww_devclrn $end
$var wire 1 X ww_devpor $end
$var wire 1 Y ww_IRLD $end
$var wire 1 Z ww_IR2 $end
$var wire 1 [ ww_CLK $end
$var wire 1 \ ww_RESET $end
$var wire 1 ] ww_MemCLK $end
$var wire 1 ^ ww_OE_L $end
$var wire 1 _ ww_CE_L $end
$var wire 1 ` ww_Addr [14] $end
$var wire 1 a ww_Addr [13] $end
$var wire 1 b ww_Addr [12] $end
$var wire 1 c ww_Addr [11] $end
$var wire 1 d ww_Addr [10] $end
$var wire 1 e ww_Addr [9] $end
$var wire 1 f ww_Addr [8] $end
$var wire 1 g ww_Addr [7] $end
$var wire 1 h ww_Addr [6] $end
$var wire 1 i ww_Addr [5] $end
$var wire 1 j ww_Addr [4] $end
$var wire 1 k ww_Addr [3] $end
$var wire 1 l ww_Addr [2] $end
$var wire 1 m ww_Addr [1] $end
$var wire 1 n ww_Addr [0] $end
$var wire 1 o ww_PCINC $end
$var wire 1 p ww_PCLD $end
$var wire 1 q ww_IR1 $end
$var wire 1 r ww_IR0 $end
$var wire 1 s ww_COUT $end
$var wire 1 t ww_MSA1 $end
$var wire 1 u ww_MSC2 $end
$var wire 1 v ww_MSA0 $end
$var wire 1 w ww_MSC1 $end
$var wire 1 x ww_MSB1 $end
$var wire 1 y ww_CIN $end
$var wire 1 z ww_MSC0 $end
$var wire 1 { ww_MSB0 $end
$var wire 1 | ww_A3 $end
$var wire 1 } ww_A2 $end
$var wire 1 ~ ww_A1 $end
$var wire 1 !! ww_A0 $end
$var wire 1 "! ww_B3 $end
$var wire 1 #! ww_B2 $end
$var wire 1 $! ww_B1 $end
$var wire 1 %! ww_B0 $end
$var wire 1 &! ww_OUT3 $end
$var wire 1 '! ww_OUT2 $end
$var wire 1 (! ww_OUT1 $end
$var wire 1 )! ww_OUT0 $end
$var wire 1 *! \inst7~clkctrl_INCLK_bus\ [3] $end
$var wire 1 +! \inst7~clkctrl_INCLK_bus\ [2] $end
$var wire 1 ,! \inst7~clkctrl_INCLK_bus\ [1] $end
$var wire 1 -! \inst7~clkctrl_INCLK_bus\ [0] $end
$var wire 1 .! \MemCLK~inputclkctrl_INCLK_bus\ [3] $end
$var wire 1 /! \MemCLK~inputclkctrl_INCLK_bus\ [2] $end
$var wire 1 0! \MemCLK~inputclkctrl_INCLK_bus\ [1] $end
$var wire 1 1! \MemCLK~inputclkctrl_INCLK_bus\ [0] $end
$var wire 1 2! \RESET~inputclkctrl_INCLK_bus\ [3] $end
$var wire 1 3! \RESET~inputclkctrl_INCLK_bus\ [2] $end
$var wire 1 4! \RESET~inputclkctrl_INCLK_bus\ [1] $end
$var wire 1 5! \RESET~inputclkctrl_INCLK_bus\ [0] $end
$var wire 1 6! \OE_L~input_o\ $end
$var wire 1 7! \CE_L~input_o\ $end
$var wire 1 8! \~QUARTUS_CREATED_GND~I_combout\ $end
$var wire 1 9! \~QUARTUS_CREATED_UNVM~~busy\ $end
$var wire 1 :! \IRLD~output_o\ $end
$var wire 1 ;! \IR2~output_o\ $end
$var wire 1 <! \CLK~output_o\ $end
$var wire 1 =! \Addr[14]~output_o\ $end
$var wire 1 >! \Addr[13]~output_o\ $end
$var wire 1 ?! \Addr[12]~output_o\ $end
$var wire 1 @! \Addr[11]~output_o\ $end
$var wire 1 A! \Addr[10]~output_o\ $end
$var wire 1 B! \Addr[9]~output_o\ $end
$var wire 1 C! \Addr[8]~output_o\ $end
$var wire 1 D! \Addr[7]~output_o\ $end
$var wire 1 E! \Addr[6]~output_o\ $end
$var wire 1 F! \Addr[5]~output_o\ $end
$var wire 1 G! \Addr[4]~output_o\ $end
$var wire 1 H! \Addr[3]~output_o\ $end
$var wire 1 I! \Addr[2]~output_o\ $end
$var wire 1 J! \Addr[1]~output_o\ $end
$var wire 1 K! \Addr[0]~output_o\ $end
$var wire 1 L! \PCINC~output_o\ $end
$var wire 1 M! \PCLD~output_o\ $end
$var wire 1 N! \IR1~output_o\ $end
$var wire 1 O! \IR0~output_o\ $end
$var wire 1 P! \COUT~output_o\ $end
$var wire 1 Q! \MSA1~output_o\ $end
$var wire 1 R! \MSC2~output_o\ $end
$var wire 1 S! \MSA0~output_o\ $end
$var wire 1 T! \MSC1~output_o\ $end
$var wire 1 U! \MSB1~output_o\ $end
$var wire 1 V! \MSC0~output_o\ $end
$var wire 1 W! \MSB0~output_o\ $end
$var wire 1 X! \A3~output_o\ $end
$var wire 1 Y! \A2~output_o\ $end
$var wire 1 Z! \A1~output_o\ $end
$var wire 1 [! \A0~output_o\ $end
$var wire 1 \! \B3~output_o\ $end
$var wire 1 ]! \B2~output_o\ $end
$var wire 1 ^! \B1~output_o\ $end
$var wire 1 _! \B0~output_o\ $end
$var wire 1 `! \OUT3~output_o\ $end
$var wire 1 a! \OUT2~output_o\ $end
$var wire 1 b! \OUT1~output_o\ $end
$var wire 1 c! \OUT0~output_o\ $end
$var wire 1 d! \MemCLK~input_o\ $end
$var wire 1 e! \MemCLK~inputclkctrl_outclk\ $end
$var wire 1 f! \inst7~0_combout\ $end
$var wire 1 g! \inst7~feeder_combout\ $end
$var wire 1 h! \RESET~input_o\ $end
$var wire 1 i! \RESET~inputclkctrl_outclk\ $end
$var wire 1 j! \inst7~q\ $end
$var wire 1 k! \inst7~clkctrl_outclk\ $end
$var wire 1 l! \inst31|PCLD~combout\ $end
$var wire 1 m! \inst11|sub|106~1_combout\ $end
$var wire 1 n! \inst11|sub|102~0_combout\ $end
$var wire 1 o! \inst11|sub|99~q\ $end
$var wire 1 p! \inst16|Mux0~0_combout\ $end
$var wire 1 q! \inst31|PCINC~0_combout\ $end
$var wire 1 r! \inst11|sub|106~0_combout\ $end
$var wire 1 s! \inst11|sub|109~0_combout\ $end
$var wire 1 t! \inst11|sub|110~q\ $end
$var wire 1 u! \inst16|Mux3~0_combout\ $end
$var wire 1 v! \inst11|sub|75~0_combout\ $end
$var wire 1 w! \inst11|sub|9~q\ $end
$var wire 1 x! \inst16|Mux1~0_combout\ $end
$var wire 1 y! \inst16|D_sig[2]~feeder_combout\ $end
$var wire 1 z! \inst2|inst1~q\ $end
$var wire 1 {! \inst14|inst1~q\ $end
$var wire 1 |! \inst31|D1~2_combout\ $end
$var wire 1 }! \inst31|D0~combout\ $end
$var wire 1 ~! \inst5~q\ $end
$var wire 1 !" \inst11|sub|92~2_combout\ $end
$var wire 1 "" \inst11|sub|92~3_combout\ $end
$var wire 1 #" \inst11|sub|87~q\ $end
$var wire 1 $" \inst16|Mux2~0_combout\ $end
$var wire 1 %" \inst3|inst1~q\ $end
$var wire 1 &" \inst31|D1~0_combout\ $end
$var wire 1 '" \inst31|D1~1_combout\ $end
$var wire 1 (" \inst8~q\ $end
$var wire 1 )" \inst31|IRLD~combout\ $end
$var wire 1 *" \inst31|MSC2~0_combout\ $end
$var wire 1 +" \inst31|MSC1~0_combout\ $end
$var wire 1 ," \inst31|MSB1~combout\ $end
$var wire 1 -" \inst|inst39|sub|81~3_combout\ $end
$var wire 1 ." \inst|inst42|sub|81~3_combout\ $end
$var wire 1 /" \inst|inst47|6~0_combout\ $end
$var wire 1 0" \inst|inst18~q\ $end
$var wire 1 1" \CIN~input_o\ $end
$var wire 1 2" \inst|inst~0_combout\ $end
$var wire 1 3" \inst31|MSC0~0_combout\ $end
$var wire 1 4" \inst|inst45|sub|66~combout\ $end
$var wire 1 5" \inst|inst40|6~0_combout\ $end
$var wire 1 6" \inst|inst19~q\ $end
$var wire 1 7" \inst|inst45|sub|81~0_combout\ $end
$var wire 1 8" \inst|inst45|sub|81~1_combout\ $end
$var wire 1 9" \inst|inst45|sub|81~2_combout\ $end
$var wire 1 :" \inst|inst45|sub|81~3_combout\ $end
$var wire 1 ;" \inst|inst7~0_combout\ $end
$var wire 1 <" \inst31|MSA0~combout\ $end
$var wire 1 =" \inst|inst7~q\ $end
$var wire 1 >" \inst|inst36|sub|104~0_combout\ $end
$var wire 1 ?" \inst|inst42|sub|81~0_combout\ $end
$var wire 1 @" \inst|inst42|sub|81~1_combout\ $end
$var wire 1 A" \inst|inst42|sub|81~2_combout\ $end
$var wire 1 B" \inst|inst6~0_combout\ $end
$var wire 1 C" \inst|inst6~q\ $end
$var wire 1 D" \inst|inst39|sub|81~1_combout\ $end
$var wire 1 E" \inst|inst39|sub|81~4_combout\ $end
$var wire 1 F" \inst|inst48|6~0_combout\ $end
$var wire 1 G" \inst|inst17~q\ $end
$var wire 1 H" \inst|inst36|sub|105~0_combout\ $end
$var wire 1 I" \inst|inst39|sub|81~0_combout\ $end
$var wire 1 J" \inst|inst39|sub|81~2_combout\ $end
$var wire 1 K" \inst|inst5~0_combout\ $end
$var wire 1 L" \inst|inst5~q\ $end
$var wire 1 M" \inst|inst38|sub|65~combout\ $end
$var wire 1 N" \inst|inst50|6~0_combout\ $end
$var wire 1 O" \inst|inst16~q\ $end
$var wire 1 P" \inst|inst36|sub|82~0_combout\ $end
$var wire 1 Q" \inst|inst36|sub|82~combout\ $end
$var wire 1 R" \inst|inst38|sub|81~0_combout\ $end
$var wire 1 S" \inst|inst38|sub|81~1_combout\ $end
$var wire 1 T" \inst|inst38|sub|81~2_combout\ $end
$var wire 1 U" \inst|inst4~0_combout\ $end
$var wire 1 V" \inst|inst4~q\ $end
$var wire 1 W" \inst|inst32~combout\ $end
$var wire 1 X" \inst|inst36|sub|107~0_combout\ $end
$var wire 1 Y" \inst|inst~1_combout\ $end
$var wire 1 Z" \inst16|D_sig\ [7] $end
$var wire 1 [" \inst16|D_sig\ [6] $end
$var wire 1 \" \inst16|D_sig\ [5] $end
$var wire 1 ]" \inst16|D_sig\ [4] $end
$var wire 1 ^" \inst16|D_sig\ [3] $end
$var wire 1 _" \inst16|D_sig\ [2] $end
$var wire 1 `" \inst16|D_sig\ [1] $end
$var wire 1 a" \inst16|D_sig\ [0] $end
$var wire 1 b" \inst31|ALT_INV_MSB1~combout\ $end
$var wire 1 c" \inst31|ALT_INV_MSC1~0_combout\ $end
$var wire 1 d" \inst31|ALT_INV_MSA0~combout\ $end
$upscope $end
$upscope $end
$enddefinitions $end
#0
$dumpvars
0!
0"
0#
0$
04
05
06
07
18
09
0:
0;
0<
0=
0>
1?
0@
1A
0B
0C
1D
0E
0F
0G
1H
0I
0J
0K
0L
0M
0N
0O
0P
1Q
xR
1S
1T
1U
1V
1W
1X
1Y
0Z
0[
0\
0]
1^
1_
0o
0p
0q
0r
0s
0t
0u
1v
0w
1x
0y
0z
0{
0|
0}
0~
0!!
0"!
0#!
0$!
0%!
0&!
0'!
0(!
0)!
16!
17!
08!
z9!
1:!
0;!
0<!
0=!
1>!
0?!
0@!
0A!
1B!
1C!
0D!
1E!
1F!
1G!
0H!
0I!
0J!
0K!
0L!
0M!
0N!
0O!
0P!
0Q!
0R!
1S!
0T!
1U!
0V!
0W!
0X!
0Y!
0Z!
0[!
0\!
0]!
0^!
0_!
0`!
0a!
0b!
0c!
0d!
0e!
1f!
1g!
0h!
0i!
0j!
0k!
0l!
0m!
0n!
0o!
0p!
0q!
0r!
0s!
0t!
1u!
0v!
0w!
0x!
0y!
0z!
0{!
0|!
1}!
0~!
0!"
0""
0#"
1$"
0%"
0&"
0'"
0("
1)"
0*"
1+"
1,"
1-"
0."
0/"
00"
01"
02"
03"
04"
05"
06"
07"
08"
09"
0:"
0;"
1<"
0="
0>"
0?"
0@"
0A"
0B"
0C"
0D"
0E"
0F"
0G"
0H"
0I"
0J"
0K"
0L"
0M"
0N"
0O"
0P"
0Q"
0R"
0S"
0T"
0U"
0V"
0W"
0X"
0Y"
0b"
0c"
0d"
0`
1a
0b
0c
0d
1e
1f
0g
1h
1i
1j
0k
0l
0m
0n
xZ"
x["
x\"
x]"
0^"
0_"
0`"
0a"
1.!
1/!
10!
01!
12!
13!
14!
05!
1*!
1+!
1,!
0-!
0%
1&
0'
0(
0)
1*
1+
0,
1-
1.
1/
00
01
02
03
$end
#25000
1@
1]
1d!
11!
1e!
1a"
1`"
#50000
0@
1O
0]
1\
1h!
0d!
15!
01!
0e!
1i!
#75000
1@
1]
1d!
11!
1e!
1j!
1-!
1<!
0f!
1[
0g!
1:
1k!
1{!
1~!
1%"
1N!
1O!
1q!
1v!
0}!
1&"
0)"
1q
1r
0:!
1L!
1'"
1=
1<
0Y
1o
0?
1M
#100000
0@
0]
0d!
01!
0e!
#125000
1@
1]
1d!
11!
1e!
0j!
0-!
0<!
1f!
0[
1g!
0:
0k!
#150000
0@
0]
0d!
01!
0e!
#175000
1@
1]
1d!
11!
1e!
1j!
1-!
1<!
0f!
1[
0g!
1:
1k!
1w!
0~!
1("
1K!
0&"
0<"
0v!
1!"
1d"
1n
0S!
1""
0'"
13
0v
0A
#200000
0@
0]
0d!
01!
0e!
#225000
1@
1]
1d!
11!
1e!
0j!
0-!
0<!
1f!
0[
1g!
0:
0k!
#250000
0@
0]
0d!
01!
0e!
#275000
1@
1]
1d!
11!
1e!
1j!
1-!
1<!
0f!
1[
0g!
1:
1k!
0w!
1#"
0("
1="
1C"
1Z!
1[!
1J!
0K!
1."
1?"
1B"
1D"
17"
19"
1;"
0q!
1}!
1)"
1<"
0u!
0$"
0d"
1~
1!!
1m
0n
1S!
1:!
0L!
1b!
18"
1A"
1/"
1"
1!
03
12
1v
1Y
0o
1(!
1:"
1A
1?
0M
1J
1c!
15"
1)!
1I
#300000
0@
0]
0d!
01!
0e!
#325000
1@
1]
1d!
11!
1e!
0j!
0a"
0`"
0-!
0<!
1f!
0[
1g!
0:
0k!
#350000
0@
0]
0d!
01!
0e!
#375000
1@
1]
1d!
11!
1e!
1j!
1-!
1<!
0f!
1[
0g!
1:
1k!
0{!
1~!
0%"
0N!
0O!
1q!
1v!
0}!
1&"
0)"
0q
0r
0:!
1L!
0,"
0=
0<
1b"
0Y
1o
0U!
0?
1M
1W!
0x
1{
0D
1C
#400000
0@
0]
0d!
01!
0e!
#425000
1@
1]
1d!
11!
1e!
0j!
0-!
0<!
1f!
0[
1g!
0:
0k!
#450000
0@
0]
0d!
01!
0e!
#475000
1@
1]
1d!
11!
1e!
1j!
1-!
1<!
0f!
1[
0g!
1:
1k!
1w!
0~!
10"
16"
1_!
1^!
1K!
09"
1>"
1H"
0q!
1}!
0&"
1)"
1u!
1$"
1%!
1$!
1n
1:!
0L!
1,"
14
15
13
0b"
1Y
0o
1U!
1?
0M
0W!
1x
0{
1D
0C
#500000
0@
0]
0d!
01!
0e!
#525000
1@
1]
1d!
11!
1e!
0j!
1a"
1`"
0-!
0<!
1f!
0[
1g!
0:
0k!
#550000
0@
0]
0d!
01!
0e!
#575000
1@
1]
1d!
11!
1e!
1j!
1-!
1<!
0f!
1[
0g!
1:
1k!
1{!
1~!
1%"
1N!
1O!
1m!
1q!
0v!
0}!
0!"
1&"
0)"
1q
1r
0:!
1L!
1'"
0""
1n!
1=
1<
0Y
1o
0?
1M
#600000
0@
0]
0d!
01!
0e!
#625000
1@
1]
1d!
11!
1e!
0j!
0-!
0<!
1f!
0[
1g!
0:
0k!
#650000
0@
0]
0d!
01!
0e!
#675000
1@
1]
1d!
11!
1e!
1j!
1-!
1<!
0f!
1[
0g!
1:
1k!
1o!
0w!
0~!
0#"
1("
0J!
0K!
1I!
0&"
0<"
0m!
1v!
0n!
1x!
1d"
0m
0n
1l
0S!
1y!
1n!
0'"
03
02
11
0v
0A
#700000
0@
0]
0d!
01!
0e!
#725000
1@
1]
1d!
11!
1e!
0j!
1_"
0-!
0<!
1f!
0[
1g!
0:
0k!
#750000
0@
0]
0d!
01!
0e!
#775000
1@
1]
1d!
11!
1e!
1j!
1-!
1<!
0f!
1[
0g!
1:
1k!
1w!
0("
1L"
1Y!
1K!
1E"
1I"
1K"
1M"
1Q"
0q!
1}!
1)"
1<"
0x!
0$"
0d"
1}
1n
1S!
1:!
0L!
1a!
0y!
1J"
1F"
1#
13
1v
1Y
0o
1'!
1A
1?
0M
1K
#800000
0@
0]
0d!
01!
0e!
#825000
1@
1]
1d!
11!
1e!
0j!
0_"
0`"
0-!
0<!
1f!
0[
1g!
0:
0k!
#850000
0@
0]
0d!
01!
0e!
#875000
1@
1]
1d!
11!
1e!
1j!
1-!
1<!
0f!
1[
0g!
1:
1k!
1~!
0%"
0N!
1q!
0v!
0}!
1!"
1&"
0)"
0q
0:!
1L!
1*"
0-"
12"
13"
1""
0=
0Y
1o
1V!
1Q!
1R!
14"
0?"
1@"
0D"
0I"
0M"
0:"
1S"
1T"
0?
1M
1z
1t
1u
1`!
0c!
1N"
1U"
05"
0;"
0J"
1E
1B
1G
1&!
0)!
0E"
0K"
1L
0I
0a!
0F"
0'!
0K
#900000
0@
0]
0d!
01!
0e!
#925000
1@
1]
1d!
11!
1e!
0j!
0-!
0<!
1f!
0[
1g!
0:
0k!
#950000
0@
0]
0d!
01!
0e!
#975000
1@
1]
1d!
11!
1e!
1j!
1-!
1<!
0f!
1[
0g!
1:
1k!
0w!
0~!
1#"
0="
0L"
1V"
1X!
0Y!
0[!
1J!
0K!
1D"
1P"
1W"
1I"
0Q"
19"
0>"
0q!
1}!
0&"
1)"
0u!
1$"
1|
0}
0!!
1m
0n
1:!
0L!
0*"
1-"
02"
03"
1?"
1:"
0T"
1Q"
1J"
1$
0#
0!
03
12
1Y
0o
0`!
1c!
0V!
0Q!
0R!
0N"
15"
0A"
04"
07"
0@"
0I"
1R"
0S"
1T"
1?
0M
0&!
1)!
0z
0t
0u
1`!
1N"
0T"
1S"
0J"
1A"
08"
0L
1I
0E
0B
0G
1&!
0`!
0:"
1T"
0N"
1L
0&!
1`!
0c!
1N"
05"
0L
1&!
0)!
1L
0I
#1000000
0@
0]
0d!
01!
0e!
#1025000
1@
1]
1d!
11!
1e!
0j!
0a"
1`"
0-!
0<!
1f!
0[
1g!
0:
0k!
#1050000
0@
0]
0d!
01!
0e!
#1075000
1@
1]
1d!
11!
1e!
1j!
1-!
1<!
0f!
1[
0g!
1:
1k!
0{!
1~!
1%"
1N!
0O!
1q!
1v!
0}!
1&"
0)"
1q
0r
0:!
1L!
1*"
0+"
0-"
13"
1=
0<
1c"
0Y
1o
1V!
1Q!
1R!
14"
1I"
0A"
1J"
0R"
0S"
0?
1M
1T!
1z
1t
1u
0T"
1E"
1K"
0."
0B"
18"
1w
1E
1B
1G
1F
0b!
1a!
0`!
1:"
0/"
1F"
0N"
0U"
0(!
1'!
0&!
1c!
15"
1;"
0J
1K
0L
1)!
1I
#1100000
0@
0]
0d!
01!
0e!
#1125000
1@
1]
1d!
11!
1e!
0j!
0-!
0<!
1f!
0[
1g!
0:
0k!
#1150000
0@
0]
0d!
01!
0e!
#1175000
1@
1]
1d!
11!
1e!
1j!
1-!
1<!
0f!
1[
0g!
1:
1k!
1w!
0~!
1="
0C"
1L"
0V"
0X!
1Y!
0Z!
1[!
1K!
0P"
0W"
0I"
0Q"
1X"
04"
0?"
0D"
0H"
17"
09"
1>"
1@"
0q!
1}!
0&"
1)"
1r!
1u!
0$"
0|
1}
0~
1!!
1n
1:!
0L!
1s!
0*"
1+"
1-"
03"
0r!
1?"
1H"
1I"
1A"
08"
0J"
0X"
0$
1#
0"
1!
13
0c"
1Y
0o
0V!
0Q!
0R!
19"
0:"
1Q"
0s!
0?"
1M"
0@"
0A"
1J"
18"
1?
0M
0T!
0z
0t
0u
0c!
09"
1A"
05"
1:"
0w
0E
0B
0G
0)!
0F
1c!
15"
0I
1)!
1I
#1200000
0@
0]
0d!
01!
0e!
#1225000
1@
1]
1d!
11!
1e!
0j!
1a"
0`"
0-!
0<!
1f!
0[
1g!
0:
0k!
#1250000
0@
0]
0d!
01!
0e!
#1275000
1@
1]
1d!
11!
1e!
1j!
1-!
1<!
0f!
1[
0g!
1:
1k!
1{!
1~!
0%"
0N!
1O!
1m!
1q!
0v!
0}!
0!"
1&"
0)"
0q
1r
0:!
1L!
1*"
0-"
12"
13"
0""
1r!
0n!
0=
1<
0Y
1o
1V!
1Q!
1R!
1s!
1?"
1@"
0I"
0M"
0:"
1."
1B"
1S"
1T"
0?
1M
1z
1t
1u
1`!
1b!
0c!
1N"
1U"
1/"
05"
0;"
0J"
0A"
1E
1B
1G
1&!
1(!
0)!
0."
0B"
0E"
0K"
1L
1J
0I
0a!
0b!
0F"
0/"
0'!
0(!
0K
0J
#1300000
0@
0]
0d!
01!
0e!
#1325000
1@
1]
1d!
11!
1e!
0j!
0-!
0<!
1f!
0[
1g!
0:
0k!
#1350000
0@
0]
0d!
01!
0e!
#1375000
1@
1]
1d!
11!
1e!
1j!
1-!
1<!
0f!
1[
0g!
1:
1k!
0o!
1t!
0w!
0~!
0#"
0="
0L"
1V"
1X!
0Y!
0[!
0J!
0K!
1H!
0I!
1D"
1P"
1W"
1I"
0Q"
19"
0>"
0q!
1}!
0&"
1)"
0m!
0s!
1n!
0r!
0u!
1x!
1|
0}
0!!
0m
0n
1k
0l
1:!
0L!
1y!
1s!
0n!
0*"
1-"
02"
03"
0?"
0H"
1:"
0T"
1Q"
1J"
1$
0#
0!
03
02
01
10
1Y
0o
0`!
1c!
0V!
0Q!
0R!
0N"
15"
1A"
07"
0@"
0D"
0I"
1R"
0S"
1T"
1?
0M
0&!
1)!
0z
0t
0u
1`!
1N"
0T"
1S"
0J"
08"
0L
1I
0E
0B
0G
1&!
0`!
0:"
1T"
0N"
1L
0&!
1`!
0c!
1N"
05"
0L
1&!
0)!
1L
0I
#1400000
0@
0]
0d!
01!
0e!
#1425000
1@
1]
1d!
11!
1e!
0j!
0a"
1_"
0-!
0<!
1f!
0[
1g!
0:
0k!
#1450000
0@
0]
0d!
01!
0e!
#1475000
1@
1]
1d!
11!
1e!
1j!
1-!
1<!
0f!
1[
0g!
1:
1k!
1z!
0{!
1~!
0O!
1;!
1q!
1v!
0}!
1&"
0)"
0r
1Z
0:!
1L!
1*"
0+"
0-"
0<
1>
1c"
0Y
1o
1Q!
1R!
17"
0A"
0R"
1."
1B"
0S"
0?
1M
1T!
1t
1u
1b!
0T"
1/"
0."
0B"
1w
1B
1G
1(!
1F
0b!
0`!
0/"
0N"
0U"
1J
0(!
0&!
0J
0L
#1500000
0@
0]
0d!
01!
0e!
#1525000
1@
1]
1d!
11!
1e!
0j!
0-!
0<!
1f!
0[
1g!
0:
0k!
#1550000
0@
0]
0d!
01!
0e!
#1575000
1@
1]
1d!
11!
1e!
1j!
1-!
1<!
0f!
1[
0g!
1:
1k!
1w!
0~!
0V"
0X!
1K!
0P"
1R"
0W"
0q!
1}!
0&"
1)"
0x!
0|
1n
1:!
0L!
0y!
0*"
1+"
1-"
0Q"
0$
13
0c"
1Y
0o
0Q!
0R!
07"
1A"
0R"
18"
1S"
1?
0M
0T!
0t
0u
1T"
1:"
0S"
08"
0w
0B
0G
0F
1c!
1`!
0:"
0T"
15"
1N"
1)!
1&!
0`!
0c!
0N"
05"
1I
1L
0&!
0)!
0L
0I
#1600000
0@
0]
0d!
01!
0e!
#1625000
1@
1]
1d!
11!
1e!
0j!
0_"
0-!
0<!
1f!
0[
1g!
0:
0k!
#1650000
0@
0]
0d!
01!
0e!
#1675000
1@
1]
1d!
11!
1e!
1j!
1-!
1<!
0f!
1[
0g!
1:
1k!
0z!
1~!
0;!
1q!
0v!
0}!
1!"
1&"
0)"
0Z
0:!
1L!
0,"
1""
0>
1b"
0Y
1o
0U!
0?
1M
1W!
0x
1{
0D
1C
#1700000
0@
0]
0d!
01!
0e!
#1725000
1@
1]
1d!
11!
1e!
0j!
0-!
0<!
1f!
0[
1g!
0:
0k!
#1750000
0@
0]
0d!
01!
0e!
#1775000
1@
1]
1d!
11!
1e!
1j!
1-!
1<!
0f!
1[
0g!
1:
1k!
0w!
0~!
1#"
00"
06"
0_!
0^!
1J!
0K!
09"
0A"
0q!
1}!
0&"
1)"
1u!
1x!
0%!
0$!
1m
0n
1:!
0L!
1y!
1,"
04
05
03
12
0b"
1Y
0o
1U!
1?
0M
0W!
1x
0{
1D
0C
#1800000
0@
0]
0d!
01!
0e!
#1825000
1@
1]
1d!
11!
1e!
0j!
1a"
1_"
0-!
0<!
1f!
0[
1g!
0:
0k!
#1850000
0@
0]
0d!
01!
0e!
#1875000
1@
1]
1d!
11!
1e!
1j!
1-!
1<!
0f!
1[
0g!
1:
1k!
1z!
1{!
1~!
1O!
1;!
1q!
1v!
0}!
1&"
0)"
1|!
1r
1Z
0:!
1L!
1}!
1'"
1<
1>
0Y
1o
0?
1M
#1900000
0@
0]
0d!
01!
0e!
#1925000
1@
1]
1d!
11!
1e!
0j!
0-!
0<!
1f!
0[
1g!
0:
0k!
#1950000
0@
0]
0d!
01!
0e!
#1975000
1@
1]
1d!
11!
1e!
1j!
1-!
1<!
0f!
1[
0g!
1:
1k!
1w!
1("
1K!
1l!
0q!
0|!
0&"
0x!
0!"
1$"
1n
0L!
1M!
0""
0y!
0'"
0}!
1n!
0s!
13
0o
1p
0M
1N
#2000000
0@
0]
0d!
01!
0e!
#2025000
1@
1]
1d!
11!
1e!
0j!
0_"
1`"
0-!
0<!
1""
0n!
1f!
0[
1g!
0:
0k!
#2050000
0@
0]
0d!
01!
0e!
#2075000
1@
1]
1d!
11!
1e!
1j!
1-!
1<!
0f!
1[
0g!
1:
1k!
0t!
0~!
0("
0H!
0l!
1}!
1!"
0""
1)"
0k
1:!
0M!
1""
00
1Y
0p
1?
0N
#2100000
0@
0]
0d!
01!
0e!
#2125000
1@
1]
1d!
11!
1e!
0j!
0-!
0<!
1f!
0[
1g!
0:
0k!
#2150000
0@
0]
0d!
01!
0e!
#2175000
1@
1]
1d!
11!
1e!
1j!
1-!
1<!
0f!
1[
0g!
1:
1k!
0z!
1~!
1%"
1N!
0;!
1m!
1q!
0v!
0}!
0!"
1&"
0)"
1q
0Z
0:!
1L!
1'"
0""
1n!
1=
0>
0Y
1o
0?
1M
#2200000
0@
0]
0d!
01!
0e!
#2225000
1@
1]
1d!
11!
1e!
0j!
0-!
0<!
1f!
0[
1g!
0:
0k!
#2250000
0@
0]
0d!
01!
0e!
#2275000
1@
1]
1d!
11!
1e!
1j!
1-!
1<!
0f!
1[
0g!
1:
1k!
1o!
0w!
0~!
0#"
1("
0J!
0K!
1I!
0&"
0<"
0m!
1v!
0n!
1x!
1d"
0m
0n
1l
0S!
1y!
1n!
0'"
03
02
11
0v
0A
#2300000
0@
0]
0d!
01!
0e!
#2325000
1@
1]
1d!
11!
1e!
0j!
1_"
0-!
0<!
1f!
0[
1g!
0:
0k!
#2350000
0@
0]
0d!
01!
0e!
#2375000
1@
1]
1d!
11!
1e!
1j!
1-!
1<!
0f!
1[
0g!
1:
1k!
1w!
0("
1="
1C"
1L"
1Y!
1Z!
1[!
1K!
1E"
1I"
1K"
1M"
1."
1?"
1B"
1D"
17"
19"
1;"
0q!
1}!
1)"
1<"
0x!
0$"
0d"
1}
1~
1!!
1n
1S!
1:!
0L!
1b!
1a!
0y!
18"
1A"
1/"
1J"
1F"
1#
1"
1!
13
1v
1Y
0o
1(!
1'!
1:"
1A
1?
0M
1J
1K
1c!
15"
1)!
1I
#2400000
0@
0]
0d!
01!
0e!
#2425000
1@
1]
1d!
11!
1e!
0j!
0_"
0`"
0-!
0<!
1f!
0[
1g!
0:
0k!
#2450000
0@
0]
0d!
01!
0e!
