lab3/Lab3_2bit_Cnt/simulation/qsim/Lab3_2bit_Cnt.msim.vcd
$comment
	File created using the following command:
		vcd file Lab3_2bit_Cnt.msim.vcd -direction
$end
$date
	Sun Jun 09 23:05:25 2019
$end
$version
	ModelSim Version 10.5b
$end
$timescale
	1ps
$end

$scope module Lab3_2bit_Cnt_vlg_vec_tst $end
$var reg 1 ! CLK $end
$var wire 1 " Q0 $end
$var wire 1 # Q1 $end

$scope module i1 $end
$var wire 1 $ gnd $end
$var wire 1 % vcc $end
$var wire 1 & unknown $end
$var tri1 1 ' devclrn $end
$var tri1 1 ( devpor $end
$var tri1 1 ) devoe $end
$var wire 1 * ~QUARTUS_CREATED_GND~I_combout $end
$var wire 1 + ~QUARTUS_CREATED_UNVM~~busy $end
$var wire 1 , Q1~output_o $end
$var wire 1 - Q0~output_o $end
$var wire 1 . CLK~input_o $end
$var wire 1 / CLK~inputclkctrl_outclk $end
$var wire 1 0 inst|10~0_combout $end
$var wire 1 1 inst|10~q $end
$var wire 1 2 inst|9~feeder_combout $end
$var wire 1 3 inst|9~q $end
$upscope $end
$upscope $end
$enddefinitions $end
#0
$dumpvars
0!
0"
0#
0$
1%
x&
1'
1(
1)
0*
z+
0,
0-
0.
0/
10
01
02
03
$end
#25000
1!
1.
1/
11
1-
1"
12
#50000
0!
0.
0/
#75000
1!
1.
1/
13
1,
1#
00
#100000
0!
0.
0/
#125000
1!
1.
1/
01
0-
0"
02
#150000
0!
0.
0/
#175000
1!
1.
1/
03
0,
0#
10
#200000
0!
0.
0/
#225000
1!
1.
1/
11
1-
1"
12
#250000
0!
0.
0/
#275000
1!
1.
1/
13
1,
1#
00
#300000
0!
0.
0/
#325000
1!
1.
1/
01
0-
0"
02
#350000
0!
0.
0/
#375000
1!
1.
1/
03
0,
0#
10
#400000
0!
0.
0/
#425000
1!
1.
1/
11
1-
1"
12
#450000
0!
0.
0/
#475000
1!
1.
1/
13
1,
1#
00
#500000
0!
0.
0/
#525000
1!
1.
1/
01
0-
0"
02
#550000
0!
0.
0/
#575000
1!
1.
1/
03
0,
0#
10
#600000
0!
0.
0/
#625000
1!
1.
1/
11
1-
1"
12
#650000
0!
0.
0/
#675000
1!
1.
1/
13
1,
1#
00
#700000
0!
0.
0/
#725000
1!
1.
1/
01
0-
0"
02
#750000
0!
0.
0/
#775000
1!
1.
1/
03
0,
0#
10
#800000
0!
0.
0/
#825000
1!
1.
1/
11
1-
1"
12
#850000
0!
0.
0/
#875000
1!
1.
1/
13
1,
1#
00
#900000
0!
0.
0/
#925000
1!
1.
1/
01
0-
0"
02
#950000
0!
0.
0/
#975000
1!
1.
1/
03
0,
0#
10
#1000000
0!
0.
0/
#1025000
1!
1.
1/
11
1-
1"
12
#1050000
0!
0.
0/
#1075000
1!
1.
1/
13
1,
1#
00
#1100000
0!
0.
0/
#1125000
1!
1.
1/
01
0-
0"
02
#1150000
0!
0.
0/
#1175000
1!
1.
1/
03
0,
0#
10
