lab2/lab2_EQU/simulation/qsim/lab2_EQU.msim.vcd
$comment
	File created using the following command:
		vcd file lab2_EQU.msim.vcd -direction
$end
$date
	Tue Jun 04 17:54:47 2019
$end
$version
	ModelSim Version 10.5b
$end
$timescale
	1ps
$end

$scope module lab2_EQU_vlg_vec_tst $end
$var reg 1 ! T $end
$var reg 1 " V $end
$var reg 1 # W $end
$var reg 1 $ X $end
$var reg 1 % Y $end
$var reg 1 & Z_L $end
$var wire 1 ' Y0 $end
$var wire 1 ( Y1 $end

$scope module i1 $end
$var wire 1 ) gnd $end
$var wire 1 * vcc $end
$var wire 1 + unknown $end
$var tri1 1 , devclrn $end
$var tri1 1 - devpor $end
$var tri1 1 . devoe $end
$var wire 1 / ~QUARTUS_CREATED_GND~I_combout $end
$var wire 1 0 ~QUARTUS_CREATED_UNVM~~busy $end
$var wire 1 1 Y0~output_o $end
$var wire 1 2 Y1~output_o $end
$var wire 1 3 Z_L~input_o $end
$var wire 1 4 X~input_o $end
$var wire 1 5 W~input_o $end
$var wire 1 6 V~input_o $end
$var wire 1 7 Y~input_o $end
$var wire 1 8 inst1|9~0_combout $end
$var wire 1 9 inst1|9~1_combout $end
$var wire 1 : T~input_o $end
$var wire 1 ; inst1|10~0_combout $end
$upscope $end
$upscope $end
$enddefinitions $end
#0
$dumpvars
0!
0"
0#
0$
0%
0&
0'
0(
0)
1*
x+
1,
1-
1.
0/
z0
01
02
03
04
05
06
07
18
09
0:
0;
$end
#25000
1%
1&
13
17
1;
19
11
12
1(
1'
#50000
1"
1$
0%
0&
03
07
14
16
0;
09
01
02
0(
0'
#75000
1%
1&
13
17
1;
19
11
12
1(
1'
#100000
1!
1#
0"
0$
0%
0&
03
07
04
06
15
1:
0;
09
01
02
0(
0'
#125000
1%
1&
13
17
19
11
1'
#150000
1"
1$
0%
0&
03
07
14
16
09
01
0'
#175000
1%
1&
13
17
19
11
1'
#200000
0!
0#
0"
0$
0%
0&
03
07
04
06
05
0:
09
01
0'
#225000
1%
1&
13
17
1;
19
11
12
1(
1'
#250000
1"
1$
0%
0&
03
07
14
16
0;
09
01
02
0(
0'
#275000
1%
1&
13
17
1;
19
11
12
1(
1'
#300000
1!
1#
0"
0$
0%
0&
03
07
04
06
15
1:
0;
09
01
02
0(
0'
#325000
1%
1&
13
17
19
11
1'
#350000
1"
1$
0%
0&
03
07
14
16
09
01
0'
#375000
1%
1&
13
17
19
11
1'
#400000
0!
0#
0"
0$
0%
0&
03
07
04
06
05
0:
09
01
0'
#425000
1%
1&
13
17
1;
19
11
12
1(
1'
#450000
1"
1$
0%
0&
03
07
14
16
0;
09
01
02
0(
0'
#475000
1%
1&
13
17
1;
19
11
12
1(
1'
#500000
1!
1#
0"
0$
0%
0&
03
07
04
06
15
1:
0;
09
01
02
0(
0'
#525000
1%
1&
13
17
19
11
1'
#550000
1"
1$
0%
0&
03
07
14
16
09
01
0'
#575000
1%
1&
13
17
19
11
1'
#600000
0!
0#
0"
0$
0%
0&
03
07
04
06
05
0:
09
01
0'
#625000
1%
1&
13
17
1;
19
11
12
1(
1'
#650000
1"
1$
0%
0&
03
07
14
16
0;
09
01
02
0(
0'
#675000
1%
1&
13
17
1;
19
11
12
1(
1'
#700000
1!
1#
0"
0$
0%
0&
03
07
04
06
15
1:
0;
09
01
02
0(
0'
#725000
1%
1&
13
17
19
11
1'
#750000
1"
1$
0%
0&
03
07
14
16
09
01
0'
#775000
1%
1&
13
17
19
11
1'
#800000
0!
0#
0"
0$
0%
0&
03
07
04
06
05
0:
09
01
0'
#825000
1%
1&
13
17
1;
19
11
12
1(
1'
#850000
1"
1$
0%
0&
03
07
14
16
0;
09
01
02
0(
0'
#875000
1%
1&
13
17
1;
19
11
12
1(
1'
#900000
1!
1#
0"
0$
0%
0&
03
07
04
06
15
1:
0;
09
01
02
0(
0'
#925000
1%
1&
13
17
19
11
1'
#950000
1"
1$
0%
0&
03
07
14
16
09
01
0'
#975000
1%
1&
13
17
19
11
1'
#1000000
0!
0#
0"
0$
0%
0&
03
07
04
06
05
0:
09
01
0'
#1025000
1%
1&
13
17
1;
19
11
12
1(
1'
#1050000
1"
1$
0%
0&
03
07
14
16
0;
09
01
02
0(
0'
#1075000
1%
1&
13
17
1;
19
11
12
1(
1'
#1100000
1!
1#
0"
0$
0%
0&
03
07
04
06
15
1:
0;
09
01
02
0(
0'
#1125000
1%
1&
13
17
19
11
1'
#1150000
1"
1$
0%
0&
03
07
14
16
09
01
0'
#1175000
1%
1&
13
17
19
11
1'
