lab3/lab3quiz/simulation/qsim/lab3quiz.msim.vcd
$comment
	File created using the following command:
		vcd file lab3quiz.msim.vcd -direction
$end
$date
	Fri Jun 14 10:12:16 2019
$end
$version
	ModelSim Version 10.5b
$end
$timescale
	1ps
$end

$scope module lab3quiz_vlg_vec_tst $end
$var reg 1 ! CLK $end
$var reg 1 " Q0 $end
$var reg 1 # Q1 $end
$var reg 1 $ R1 $end
$var wire 1 % Y0 $end
$var wire 1 & Y1 $end

$scope module i1 $end
$var wire 1 ' gnd $end
$var wire 1 ( vcc $end
$var wire 1 ) unknown $end
$var tri1 1 * devclrn $end
$var tri1 1 + devpor $end
$var tri1 1 , devoe $end
$var wire 1 - Q1~input_o $end
$var wire 1 . Q0~input_o $end
$var wire 1 / ~QUARTUS_CREATED_GND~I_combout $end
$var wire 1 0 ~QUARTUS_CREATED_UNVM~~busy $end
$var wire 1 1 Y1~output_o $end
$var wire 1 2 Y0~output_o $end
$var wire 1 3 CLK~input_o $end
$var wire 1 4 inst~0_combout $end
$var wire 1 5 R1~input_o $end
$var wire 1 6 inst~q $end
$var wire 1 7 inst3~0_combout $end
$var wire 1 8 inst3~q $end
$var wire 1 9 inst15~combout $end
$upscope $end
$upscope $end
$enddefinitions $end
#0
$dumpvars
0!
x"
x#
0$
1%
0&
0'
1(
x)
1*
1+
1,
x-
x.
0/
z0
01
12
03
14
05
06
17
08
19
$end
#25000
1!
13
18
07
#50000
0!
03
#75000
1!
13
08
17
#100000
1$
0!
15
03
09
02
0%
#125000
1!
13
18
16
11
1&
19
04
12
1%
#150000
0!
03
#175000
1!
13
06
01
0&
07
14
#200000
0!
03
#225000
1!
13
08
16
11
1&
09
04
02
0%
#250000
0!
03
#275000
1!
13
06
01
0&
17
14
#300000
0!
03
#325000
1!
13
18
16
11
1&
19
04
12
1%
#350000
0!
03
#375000
1!
13
06
01
0&
07
14
#400000
0!
03
#425000
1!
13
08
16
11
1&
09
04
02
0%
#450000
0!
03
#475000
1!
13
06
01
0&
17
14
#500000
0!
03
#525000
1!
13
18
16
11
1&
19
04
12
1%
#550000
0!
03
#575000
1!
13
06
01
0&
07
14
#600000
0!
03
#625000
1!
13
08
16
11
1&
09
04
02
0%
#650000
0!
03
#675000
1!
13
06
01
0&
17
14
#700000
0!
03
#725000
1!
13
18
16
11
1&
19
04
12
1%
#750000
0!
03
#775000
1!
13
06
01
0&
07
14
#800000
0!
03
#825000
1!
13
08
16
11
1&
09
04
02
0%
#850000
0!
03
#875000
1!
13
06
01
0&
17
14
#900000
0!
03
#925000
1!
13
18
16
11
1&
19
04
12
1%
#950000
0!
03
#975000
1!
13
06
01
0&
07
14
#1000000
0!
03
#1025000
1!
13
08
16
11
1&
09
04
02
0%
#1050000
0!
03
#1075000
1!
13
06
01
0&
17
14
#1100000
0!
03
#1125000
1!
13
18
16
11
1&
19
04
12
1%
#1150000
0!
03
#1175000
0$
1!
05
13
06
01
0&
07
14
