lab2/lab2quiz/simulation/qsim/lab2quiz.msim.vcd
$comment
	File created using the following command:
		vcd file lab2quiz.msim.vcd -direction
$end
$date
	Fri Jun 07 10:28:03 2019
$end
$version
	ModelSim Version 10.5b
$end
$timescale
	1ps
$end

$scope module lab2quiz_vlg_vec_tst $end
$var reg 1 ! E $end
$var reg 1 " G_L $end
$var reg 1 # I $end
$var reg 1 $ T $end
$var reg 1 % Z $end
$var wire 1 & D $end

$scope module i1 $end
$var wire 1 ' gnd $end
$var wire 1 ( vcc $end
$var wire 1 ) unknown $end
$var tri1 1 * devclrn $end
$var tri1 1 + devpor $end
$var tri1 1 , devoe $end
$var wire 1 - D~output_o $end
$var wire 1 . I~input_o $end
$var wire 1 / T~input_o $end
$var wire 1 0 Z~input_o $end
$var wire 1 1 G_L~input_o $end
$var wire 1 2 E~input_o $end
$var wire 1 3 inst|9~0_combout $end
$var wire 1 4 inst|9~1_combout $end
$upscope $end
$upscope $end
$enddefinitions $end
#0
$dumpvars
0!
0"
0#
0$
0%
0&
0'
1(
x)
1*
1+
1,
0-
0.
0/
00
01
02
03
04
$end
#25000
1%
10
#50000
1$
0%
00
1/
#75000
1%
10
14
1-
1&
#100000
1"
0$
0%
00
0/
11
13
04
0-
0&
#125000
1%
10
03
#150000
1$
0%
00
1/
13
#175000
1%
10
03
14
1-
1&
#200000
1#
0"
0$
0%
00
0/
01
1.
04
0-
0&
#225000
1%
10
#250000
1$
0%
00
1/
#275000
1%
10
#300000
1"
0$
0%
00
0/
11
13
14
1-
1&
#325000
1%
10
03
04
0-
0&
#350000
1$
0%
00
1/
13
14
1-
1&
#375000
1%
10
03
04
0-
0&
#400000
0#
0"
0$
0%
00
0/
01
0.
#425000
1%
10
#450000
1$
0%
00
1/
#475000
1%
10
14
1-
1&
#500000
1"
0$
0%
00
0/
11
13
04
0-
0&
#525000
1%
10
03
#550000
1$
0%
00
1/
13
#575000
1%
10
03
14
1-
1&
#600000
1#
0"
0$
0%
00
0/
01
1.
04
0-
0&
#625000
1%
10
#650000
1$
0%
00
1/
#675000
1%
10
#700000
1"
0$
0%
00
0/
11
13
14
1-
1&
#725000
1%
10
03
04
0-
0&
#750000
1$
0%
00
1/
13
14
1-
1&
#775000
1%
10
03
04
0-
0&
#800000
0#
0"
0$
0%
00
0/
01
0.
#825000
1%
10
#850000
1$
0%
00
1/
#875000
1%
10
14
1-
1&
#900000
1"
0$
0%
00
0/
11
13
04
0-
0&
#925000
1%
10
03
#950000
1$
0%
00
1/
13
#975000
1%
10
03
14
1-
1&
#1000000
1#
0"
0$
0%
00
0/
01
1.
04
0-
0&
#1025000
1%
10
#1050000
1$
0%
00
1/
#1075000
1%
10
#1100000
1"
0$
0%
00
0/
11
13
14
1-
1&
#1125000
1%
10
03
04
0-
0&
#1150000
1$
0%
00
1/
13
14
1-
1&
#1175000
1%
10
03
04
0-
0&
