lab4/Lab4_ALU/simulation/qsim/Lab4_ALU.msim.vcd
$comment
	File created using the following command:
		vcd file Lab4_ALU.msim.vcd -direction
$end
$date
	Thu Jul 04 15:42:09 2019
$end
$version
	ModelSim Version 10.5b
$end
$timescale
	1ps
$end

$scope module Lab4_ALU_vlg_vec_tst $end
$var reg 1 ! A0 $end
$var reg 1 " A1 $end
$var reg 1 # A2 $end
$var reg 1 $ A3 $end
$var reg 1 % B0 $end
$var reg 1 & B1 $end
$var reg 1 ' B2 $end
$var reg 1 ( B3 $end
$var reg 1 ) CIN $end
$var reg 1 * S0 $end
$var reg 1 + S1 $end
$var wire 1 , COUT $end
$var wire 1 - OUT0 $end
$var wire 1 . OUT1 $end
$var wire 1 / OUT2 $end
$var wire 1 0 OUT3 $end

$scope module i1 $end
$var wire 1 1 gnd $end
$var wire 1 2 vcc $end
$var wire 1 3 unknown $end
$var tri1 1 4 devclrn $end
$var tri1 1 5 devpor $end
$var tri1 1 6 devoe $end
$var wire 1 7 ~QUARTUS_CREATED_GND~I_combout $end
$var wire 1 8 ~QUARTUS_CREATED_UNVM~~busy $end
$var wire 1 9 OUT3~output_o $end
$var wire 1 : OUT2~output_o $end
$var wire 1 ; OUT1~output_o $end
$var wire 1 < OUT0~output_o $end
$var wire 1 = COUT~output_o $end
$var wire 1 > S1~input_o $end
$var wire 1 ? A3~input_o $end
$var wire 1 @ B2~input_o $end
$var wire 1 A A2~input_o $end
$var wire 1 B B1~input_o $end
$var wire 1 C A1~input_o $end
$var wire 1 D CIN~input_o $end
$var wire 1 E B0~input_o $end
$var wire 1 F A0~input_o $end
$var wire 1 G inst5|sub|104~0_combout $end
$var wire 1 H inst5|sub|105~0_combout $end
$var wire 1 I inst5|sub|106~0_combout $end
$var wire 1 J B3~input_o $end
$var wire 1 K inst1|9~0_combout $end
$var wire 1 L S0~input_o $end
$var wire 1 M inst1|9~1_combout $end
$var wire 1 N inst1|10~0_combout $end
$var wire 1 O inst1|10~1_combout $end
$var wire 1 P inst|9~0_combout $end
$var wire 1 Q inst|9~1_combout $end
$var wire 1 R inst|10~0_combout $end
$var wire 1 S inst|10~1_combout $end
$var wire 1 T inst5|sub|107~0_combout $end
$upscope $end
$upscope $end
$enddefinitions $end
#0
$dumpvars
1!
1"
1#
1$
0%
1&
1'
0(
0)
1*
1+
1,
1-
1.
1/
10
01
12
x3
14
15
16
07
z8
19
1:
1;
1<
1=
1>
1?
1@
1A
1B
1C
0D
0E
1F
0G
1H
1I
0J
0K
1L
1M
1N
1O
1P
1Q
0R
1S
1T
$end
#50000
0$
0#
0"
0!
0'
0&
0B
0@
0F
0C
0A
0?
0P
0H
0N
0I
0S
0T
0M
09
0=
0<
0-
0,
00
0Q
0O
0:
0;
0.
0/
#75000
1(
1%
1$
1#
1"
1!
1F
1C
1A
1?
1E
1J
1G
1R
1K
1S
1Q
1O
1T
1M
19
1=
1:
1;
1<
1H
1-
1.
1/
1,
10
1I
#125000
0(
0%
0$
0#
0"
0!
0F
0C
0A
0?
0E
0J
0G
0H
0I
0R
0K
0Q
0O
0T
0=
0:
0;
0.
0/
0,
0S
0M
09
0<
0-
00
#150000
1'
1&
1B
1@
1P
1N
1Q
1O
1:
1;
1.
1/
#200000
0'
0&
0B
0@
0P
0N
0Q
0O
0:
0;
0.
0/
#225000
1(
1%
1E
1J
1R
1K
1S
1M
19
1<
1-
10
#275000
0(
0%
0E
0J
0R
0K
0S
0M
09
0<
0-
00
#300000
1$
1#
1&
1(
1J
1B
1A
1?
1K
1P
1T
1O
1M
19
1:
1=
1,
1/
10
1Q
1;
1.
#350000
0$
0#
0&
0(
0J
0B
0A
0?
0K
0P
0T
0O
0:
0=
0,
0/
0M
0Q
0;
09
00
0.
